public/test/counter_1000.vcd
$timescale 1ns $end
$scope module test $end
$var wire 16 `c cntr $end
$upscope $end
$enddefinitions $end
$dumpvars
#0
b0000000000000000 `c
#10
b0000000000000001 `c
#20
b0000000000000010 `c
#30
b0000000000000011 `c
#40
b0000000000000100 `c
#50
b0000000000000101 `c
#60
b0000000000000110 `c
#70
b0000000000000111 `c
#80
b0000000000001000 `c
#90
b0000000000001001 `c
#100
b0000000000001010 `c
#110
b0000000000001011 `c
#120
b0000000000001100 `c
#130
b0000000000001101 `c
#140
b0000000000001110 `c
#150
b0000000000001111 `c
#160
b0000000000010000 `c
#170
b0000000000010001 `c
#180
b0000000000010010 `c
#190
b0000000000010011 `c
#200
b0000000000010100 `c
#210
b0000000000010101 `c
#220
b0000000000010110 `c
#230
b0000000000010111 `c
#240
b0000000000011000 `c
#250
b0000000000011001 `c
#260
b0000000000011010 `c
#270
b0000000000011011 `c
#280
b0000000000011100 `c
#290
b0000000000011101 `c
#300
b0000000000011110 `c
#310
b0000000000011111 `c
#320
b0000000000100000 `c
#330
b0000000000100001 `c
#340
b0000000000100010 `c
#350
b0000000000100011 `c
#360
b0000000000100100 `c
#370
b0000000000100101 `c
#380
b0000000000100110 `c
#390
b0000000000100111 `c
#400
b0000000000101000 `c
#410
b0000000000101001 `c
#420
b0000000000101010 `c
#430
b0000000000101011 `c
#440
b0000000000101100 `c
#450
b0000000000101101 `c
#460
b0000000000101110 `c
#470
b0000000000101111 `c
#480
b0000000000110000 `c
#490
b0000000000110001 `c
#500
b0000000000110010 `c
#510
b0000000000110011 `c
#520
b0000000000110100 `c
#530
b0000000000110101 `c
#540
b0000000000110110 `c
#550
b0000000000110111 `c
#560
b0000000000111000 `c
#570
b0000000000111001 `c
#580
b0000000000111010 `c
#590
b0000000000111011 `c
#600
b0000000000111100 `c
#610
b0000000000111101 `c
#620
b0000000000111110 `c
#630
b0000000000111111 `c
#640
b0000000001000000 `c
#650
b0000000001000001 `c
#660
b0000000001000010 `c
#670
b0000000001000011 `c
#680
b0000000001000100 `c
#690
b0000000001000101 `c
#700
b0000000001000110 `c
#710
b0000000001000111 `c
#720
b0000000001001000 `c
#730
b0000000001001001 `c
#740
b0000000001001010 `c
#750
b0000000001001011 `c
#760
b0000000001001100 `c
#770
b0000000001001101 `c
#780
b0000000001001110 `c
#790
b0000000001001111 `c
#800
b0000000001010000 `c
#810
b0000000001010001 `c
#820
b0000000001010010 `c
#830
b0000000001010011 `c
#840
b0000000001010100 `c
#850
b0000000001010101 `c
#860
b0000000001010110 `c
#870
b0000000001010111 `c
#880
b0000000001011000 `c
#890
b0000000001011001 `c
#900
b0000000001011010 `c
#910
b0000000001011011 `c
#920
b0000000001011100 `c
#930
b0000000001011101 `c
#940
b0000000001011110 `c
#950
b0000000001011111 `c
#960
b0000000001100000 `c
#970
b0000000001100001 `c
#980
b0000000001100010 `c
#990
b0000000001100011 `c
#1000
b0000000001100100 `c
#1010
b0000000001100101 `c
#1020
b0000000001100110 `c
#1030
b0000000001100111 `c
#1040
b0000000001101000 `c
#1050
b0000000001101001 `c
#1060
b0000000001101010 `c
#1070
b0000000001101011 `c
#1080
b0000000001101100 `c
#1090
b0000000001101101 `c
#1100
b0000000001101110 `c
#1110
b0000000001101111 `c
#1120
b0000000001110000 `c
#1130
b0000000001110001 `c
#1140
b0000000001110010 `c
#1150
b0000000001110011 `c
#1160
b0000000001110100 `c
#1170
b0000000001110101 `c
#1180
b0000000001110110 `c
#1190
b0000000001110111 `c
#1200
b0000000001111000 `c
#1210
b0000000001111001 `c
#1220
b0000000001111010 `c
#1230
b0000000001111011 `c
#1240
b0000000001111100 `c
#1250
b0000000001111101 `c
#1260
b0000000001111110 `c
#1270
b0000000001111111 `c
#1280
b0000000010000000 `c
#1290
b0000000010000001 `c
#1300
b0000000010000010 `c
#1310
b0000000010000011 `c
#1320
b0000000010000100 `c
#1330
b0000000010000101 `c
#1340
b0000000010000110 `c
#1350
b0000000010000111 `c
#1360
b0000000010001000 `c
#1370
b0000000010001001 `c
#1380
b0000000010001010 `c
#1390
b0000000010001011 `c
#1400
b0000000010001100 `c
#1410
b0000000010001101 `c
#1420
b0000000010001110 `c
#1430
b0000000010001111 `c
#1440
b0000000010010000 `c
#1450
b0000000010010001 `c
#1460
b0000000010010010 `c
#1470
b0000000010010011 `c
#1480
b0000000010010100 `c
#1490
b0000000010010101 `c
#1500
b0000000010010110 `c
#1510
b0000000010010111 `c
#1520
b0000000010011000 `c
#1530
b0000000010011001 `c
#1540
b0000000010011010 `c
#1550
b0000000010011011 `c
#1560
b0000000010011100 `c
#1570
b0000000010011101 `c
#1580
b0000000010011110 `c
#1590
b0000000010011111 `c
#1600
b0000000010100000 `c
#1610
b0000000010100001 `c
#1620
b0000000010100010 `c
#1630
b0000000010100011 `c
#1640
b0000000010100100 `c
#1650
b0000000010100101 `c
#1660
b0000000010100110 `c
#1670
b0000000010100111 `c
#1680
b0000000010101000 `c
#1690
b0000000010101001 `c
#1700
b0000000010101010 `c
#1710
b0000000010101011 `c
#1720
b0000000010101100 `c
#1730
b0000000010101101 `c
#1740
b0000000010101110 `c
#1750
b0000000010101111 `c
#1760
b0000000010110000 `c
#1770
b0000000010110001 `c
#1780
b0000000010110010 `c
#1790
b0000000010110011 `c
#1800
b0000000010110100 `c
#1810
b0000000010110101 `c
#1820
b0000000010110110 `c
#1830
b0000000010110111 `c
#1840
b0000000010111000 `c
#1850
b0000000010111001 `c
#1860
b0000000010111010 `c
#1870
b0000000010111011 `c
#1880
b0000000010111100 `c
#1890
b0000000010111101 `c
#1900
b0000000010111110 `c
#1910
b0000000010111111 `c
#1920
b0000000011000000 `c
#1930
b0000000011000001 `c
#1940
b0000000011000010 `c
#1950
b0000000011000011 `c
#1960
b0000000011000100 `c
#1970
b0000000011000101 `c
#1980
b0000000011000110 `c
#1990
b0000000011000111 `c
#2000
b0000000011001000 `c
#2010
b0000000011001001 `c
#2020
b0000000011001010 `c
#2030
b0000000011001011 `c
#2040
b0000000011001100 `c
#2050
b0000000011001101 `c
#2060
b0000000011001110 `c
#2070
b0000000011001111 `c
#2080
b0000000011010000 `c
#2090
b0000000011010001 `c
#2100
b0000000011010010 `c
#2110
b0000000011010011 `c
#2120
b0000000011010100 `c
#2130
b0000000011010101 `c
#2140
b0000000011010110 `c
#2150
b0000000011010111 `c
#2160
b0000000011011000 `c
#2170
b0000000011011001 `c
#2180
b0000000011011010 `c
#2190
b0000000011011011 `c
#2200
b0000000011011100 `c
#2210
b0000000011011101 `c
#2220
b0000000011011110 `c
#2230
b0000000011011111 `c
#2240
b0000000011100000 `c
#2250
b0000000011100001 `c
#2260
b0000000011100010 `c
#2270
b0000000011100011 `c
#2280
b0000000011100100 `c
#2290
b0000000011100101 `c
#2300
b0000000011100110 `c
#2310
b0000000011100111 `c
#2320
b0000000011101000 `c
#2330
b0000000011101001 `c
#2340
b0000000011101010 `c
#2350
b0000000011101011 `c
#2360
b0000000011101100 `c
#2370
b0000000011101101 `c
#2380
b0000000011101110 `c
#2390
b0000000011101111 `c
#2400
b0000000011110000 `c
#2410
b0000000011110001 `c
#2420
b0000000011110010 `c
#2430
b0000000011110011 `c
#2440
b0000000011110100 `c
#2450
b0000000011110101 `c
#2460
b0000000011110110 `c
#2470
b0000000011110111 `c
#2480
b0000000011111000 `c
#2490
b0000000011111001 `c
#2500
b0000000011111010 `c
#2510
b0000000011111011 `c
#2520
b0000000011111100 `c
#2530
b0000000011111101 `c
#2540
b0000000011111110 `c
#2550
b0000000011111111 `c
#2560
b0000000100000000 `c
#2570
b0000000100000001 `c
#2580
b0000000100000010 `c
#2590
b0000000100000011 `c
#2600
b0000000100000100 `c
#2610
b0000000100000101 `c
#2620
b0000000100000110 `c
#2630
b0000000100000111 `c
#2640
b0000000100001000 `c
#2650
b0000000100001001 `c
#2660
b0000000100001010 `c
#2670
b0000000100001011 `c
#2680
b0000000100001100 `c
#2690
b0000000100001101 `c
#2700
b0000000100001110 `c
#2710
b0000000100001111 `c
#2720
b0000000100010000 `c
#2730
b0000000100010001 `c
#2740
b0000000100010010 `c
#2750
b0000000100010011 `c
#2760
b0000000100010100 `c
#2770
b0000000100010101 `c
#2780
b0000000100010110 `c
#2790
b0000000100010111 `c
#2800
b0000000100011000 `c
#2810
b0000000100011001 `c
#2820
b0000000100011010 `c
#2830
b0000000100011011 `c
#2840
b0000000100011100 `c
#2850
b0000000100011101 `c
#2860
b0000000100011110 `c
#2870
b0000000100011111 `c
#2880
b0000000100100000 `c
#2890
b0000000100100001 `c
#2900
b0000000100100010 `c
#2910
b0000000100100011 `c
#2920
b0000000100100100 `c
#2930
b0000000100100101 `c
#2940
b0000000100100110 `c
#2950
b0000000100100111 `c
#2960
b0000000100101000 `c
#2970
b0000000100101001 `c
#2980
b0000000100101010 `c
#2990
b0000000100101011 `c
#3000
b0000000100101100 `c
#3010
b0000000100101101 `c
#3020
b0000000100101110 `c
#3030
b0000000100101111 `c
#3040
b0000000100110000 `c
#3050
b0000000100110001 `c
#3060
b0000000100110010 `c
#3070
b0000000100110011 `c
#3080
b0000000100110100 `c
#3090
b0000000100110101 `c
#3100
b0000000100110110 `c
#3110
b0000000100110111 `c
#3120
b0000000100111000 `c
#3130
b0000000100111001 `c
#3140
b0000000100111010 `c
#3150
b0000000100111011 `c
#3160
b0000000100111100 `c
#3170
b0000000100111101 `c
#3180
b0000000100111110 `c
#3190
b0000000100111111 `c
#3200
b0000000101000000 `c
#3210
b0000000101000001 `c
#3220
b0000000101000010 `c
#3230
b0000000101000011 `c
#3240
b0000000101000100 `c
#3250
b0000000101000101 `c
#3260
b0000000101000110 `c
#3270
b0000000101000111 `c
#3280
b0000000101001000 `c
#3290
b0000000101001001 `c
#3300
b0000000101001010 `c
#3310
b0000000101001011 `c
#3320
b0000000101001100 `c
#3330
b0000000101001101 `c
#3340
b0000000101001110 `c
#3350
b0000000101001111 `c
#3360
b0000000101010000 `c
#3370
b0000000101010001 `c
#3380
b0000000101010010 `c
#3390
b0000000101010011 `c
#3400
b0000000101010100 `c
#3410
b0000000101010101 `c
#3420
b0000000101010110 `c
#3430
b0000000101010111 `c
#3440
b0000000101011000 `c
#3450
b0000000101011001 `c
#3460
b0000000101011010 `c
#3470
b0000000101011011 `c
#3480
b0000000101011100 `c
#3490
b0000000101011101 `c
#3500
b0000000101011110 `c
#3510
b0000000101011111 `c
#3520
b0000000101100000 `c
#3530
b0000000101100001 `c
#3540
b0000000101100010 `c
#3550
b0000000101100011 `c
#3560
b0000000101100100 `c
#3570
b0000000101100101 `c
#3580
b0000000101100110 `c
#3590
b0000000101100111 `c
#3600
b0000000101101000 `c
#3610
b0000000101101001 `c
#3620
b0000000101101010 `c
#3630
b0000000101101011 `c
#3640
b0000000101101100 `c
#3650
b0000000101101101 `c
#3660
b0000000101101110 `c
#3670
b0000000101101111 `c
#3680
b0000000101110000 `c
#3690
b0000000101110001 `c
#3700
b0000000101110010 `c
#3710
b0000000101110011 `c
#3720
b0000000101110100 `c
#3730
b0000000101110101 `c
#3740
b0000000101110110 `c
#3750
b0000000101110111 `c
#3760
b0000000101111000 `c
#3770
b0000000101111001 `c
#3780
b0000000101111010 `c
#3790
b0000000101111011 `c
#3800
b0000000101111100 `c
#3810
b0000000101111101 `c
#3820
b0000000101111110 `c
#3830
b0000000101111111 `c
#3840
b0000000110000000 `c
#3850
b0000000110000001 `c
#3860
b0000000110000010 `c
#3870
b0000000110000011 `c
#3880
b0000000110000100 `c
#3890
b0000000110000101 `c
#3900
b0000000110000110 `c
#3910
b0000000110000111 `c
#3920
b0000000110001000 `c
#3930
b0000000110001001 `c
#3940
b0000000110001010 `c
#3950
b0000000110001011 `c
#3960
b0000000110001100 `c
#3970
b0000000110001101 `c
#3980
b0000000110001110 `c
#3990
b0000000110001111 `c
#4000
b0000000110010000 `c
#4010
b0000000110010001 `c
#4020
b0000000110010010 `c
#4030
b0000000110010011 `c
#4040
b0000000110010100 `c
#4050
b0000000110010101 `c
#4060
b0000000110010110 `c
#4070
b0000000110010111 `c
#4080
b0000000110011000 `c
#4090
b0000000110011001 `c
#4100
b0000000110011010 `c
#4110
b0000000110011011 `c
#4120
b0000000110011100 `c
#4130
b0000000110011101 `c
#4140
b0000000110011110 `c
#4150
b0000000110011111 `c
#4160
b0000000110100000 `c
#4170
b0000000110100001 `c
#4180
b0000000110100010 `c
#4190
b0000000110100011 `c
#4200
b0000000110100100 `c
#4210
b0000000110100101 `c
#4220
b0000000110100110 `c
#4230
b0000000110100111 `c
#4240
b0000000110101000 `c
#4250
b0000000110101001 `c
#4260
b0000000110101010 `c
#4270
b0000000110101011 `c
#4280
b0000000110101100 `c
#4290
b0000000110101101 `c
#4300
b0000000110101110 `c
#4310
b0000000110101111 `c
#4320
b0000000110110000 `c
#4330
b0000000110110001 `c
#4340
b0000000110110010 `c
#4350
b0000000110110011 `c
#4360
b0000000110110100 `c
#4370
b0000000110110101 `c
#4380
b0000000110110110 `c
#4390
b0000000110110111 `c
#4400
b0000000110111000 `c
#4410
b0000000110111001 `c
#4420
b0000000110111010 `c
#4430
b0000000110111011 `c
#4440
b0000000110111100 `c
#4450
b0000000110111101 `c
#4460
b0000000110111110 `c
#4470
b0000000110111111 `c
#4480
b0000000111000000 `c
#4490
b0000000111000001 `c
#4500
b0000000111000010 `c
#4510
b0000000111000011 `c
#4520
b0000000111000100 `c
#4530
b0000000111000101 `c
#4540
b0000000111000110 `c
#4550
b0000000111000111 `c
#4560
b0000000111001000 `c
#4570
b0000000111001001 `c
#4580
b0000000111001010 `c
#4590
b0000000111001011 `c
#4600
b0000000111001100 `c
#4610
b0000000111001101 `c
#4620
b0000000111001110 `c
#4630
b0000000111001111 `c
#4640
b0000000111010000 `c
#4650
b0000000111010001 `c
#4660
b0000000111010010 `c
#4670
b0000000111010011 `c
#4680
b0000000111010100 `c
#4690
b0000000111010101 `c
#4700
b0000000111010110 `c
#4710
b0000000111010111 `c
#4720
b0000000111011000 `c
#4730
b0000000111011001 `c
#4740
b0000000111011010 `c
#4750
b0000000111011011 `c
#4760
b0000000111011100 `c
#4770
b0000000111011101 `c
#4780
b0000000111011110 `c
#4790
b0000000111011111 `c
#4800
b0000000111100000 `c
#4810
b0000000111100001 `c
#4820
b0000000111100010 `c
#4830
b0000000111100011 `c
#4840
b0000000111100100 `c
#4850
b0000000111100101 `c
#4860
b0000000111100110 `c
#4870
b0000000111100111 `c
#4880
b0000000111101000 `c
#4890
b0000000111101001 `c
#4900
b0000000111101010 `c
#4910
b0000000111101011 `c
#4920
b0000000111101100 `c
#4930
b0000000111101101 `c
#4940
b0000000111101110 `c
#4950
b0000000111101111 `c
#4960
b0000000111110000 `c
#4970
b0000000111110001 `c
#4980
b0000000111110010 `c
#4990
b0000000111110011 `c
#5000
b0000000111110100 `c
#5010
b0000000111110101 `c
#5020
b0000000111110110 `c
#5030
b0000000111110111 `c
#5040
b0000000111111000 `c
#5050
b0000000111111001 `c
#5060
b0000000111111010 `c
#5070
b0000000111111011 `c
#5080
b0000000111111100 `c
#5090
b0000000111111101 `c
#5100
b0000000111111110 `c
#5110
b0000000111111111 `c
#5120
b0000001000000000 `c
#5130
b0000001000000001 `c
#5140
b0000001000000010 `c
#5150
b0000001000000011 `c
#5160
b0000001000000100 `c
#5170
b0000001000000101 `c
#5180
b0000001000000110 `c
#5190
b0000001000000111 `c
#5200
b0000001000001000 `c
#5210
b0000001000001001 `c
#5220
b0000001000001010 `c
#5230
b0000001000001011 `c
#5240
b0000001000001100 `c
#5250
b0000001000001101 `c
#5260
b0000001000001110 `c
#5270
b0000001000001111 `c
#5280
b0000001000010000 `c
#5290
b0000001000010001 `c
#5300
b0000001000010010 `c
#5310
b0000001000010011 `c
#5320
b0000001000010100 `c
#5330
b0000001000010101 `c
#5340
b0000001000010110 `c
#5350
b0000001000010111 `c
#5360
b0000001000011000 `c
#5370
b0000001000011001 `c
#5380
b0000001000011010 `c
#5390
b0000001000011011 `c
#5400
b0000001000011100 `c
#5410
b0000001000011101 `c
#5420
b0000001000011110 `c
#5430
b0000001000011111 `c
#5440
b0000001000100000 `c
#5450
b0000001000100001 `c
#5460
b0000001000100010 `c
#5470
b0000001000100011 `c
#5480
b0000001000100100 `c
#5490
b0000001000100101 `c
#5500
b0000001000100110 `c
#5510
b0000001000100111 `c
#5520
b0000001000101000 `c
#5530
b0000001000101001 `c
#5540
b0000001000101010 `c
#5550
b0000001000101011 `c
#5560
b0000001000101100 `c
#5570
b0000001000101101 `c
#5580
b0000001000101110 `c
#5590
b0000001000101111 `c
#5600
b0000001000110000 `c
#5610
b0000001000110001 `c
#5620
b0000001000110010 `c
#5630
b0000001000110011 `c
#5640
b0000001000110100 `c
#5650
b0000001000110101 `c
#5660
b0000001000110110 `c
#5670
b0000001000110111 `c
#5680
b0000001000111000 `c
#5690
b0000001000111001 `c
#5700
b0000001000111010 `c
#5710
b0000001000111011 `c
#5720
b0000001000111100 `c
#5730
b0000001000111101 `c
#5740
b0000001000111110 `c
#5750
b0000001000111111 `c
#5760
b0000001001000000 `c
#5770
b0000001001000001 `c
#5780
b0000001001000010 `c
#5790
b0000001001000011 `c
#5800
b0000001001000100 `c
#5810
b0000001001000101 `c
#5820
b0000001001000110 `c
#5830
b0000001001000111 `c
#5840
b0000001001001000 `c
#5850
b0000001001001001 `c
#5860
b0000001001001010 `c
#5870
b0000001001001011 `c
#5880
b0000001001001100 `c
#5890
b0000001001001101 `c
#5900
b0000001001001110 `c
#5910
b0000001001001111 `c
#5920
b0000001001010000 `c
#5930
b0000001001010001 `c
#5940
b0000001001010010 `c
#5950
b0000001001010011 `c
#5960
b0000001001010100 `c
#5970
b0000001001010101 `c
#5980
b0000001001010110 `c
#5990
b0000001001010111 `c
#6000
b0000001001011000 `c
#6010
b0000001001011001 `c
#6020
b0000001001011010 `c
#6030
b0000001001011011 `c
#6040
b0000001001011100 `c
#6050
b0000001001011101 `c
#6060
b0000001001011110 `c
#6070
b0000001001011111 `c
#6080
b0000001001100000 `c
#6090
b0000001001100001 `c
#6100
b0000001001100010 `c
#6110
b0000001001100011 `c
#6120
b0000001001100100 `c
#6130
b0000001001100101 `c
#6140
b0000001001100110 `c
#6150
b0000001001100111 `c
#6160
b0000001001101000 `c
#6170
b0000001001101001 `c
#6180
b0000001001101010 `c
#6190
b0000001001101011 `c
#6200
b0000001001101100 `c
#6210
b0000001001101101 `c
#6220
b0000001001101110 `c
#6230
b0000001001101111 `c
#6240
b0000001001110000 `c
#6250
b0000001001110001 `c
#6260
b0000001001110010 `c
#6270
b0000001001110011 `c
#6280
b0000001001110100 `c
#6290
b0000001001110101 `c
#6300
b0000001001110110 `c
#6310
b0000001001110111 `c
#6320
b0000001001111000 `c
#6330
b0000001001111001 `c
#6340
b0000001001111010 `c
#6350
b0000001001111011 `c
#6360
b0000001001111100 `c
#6370
b0000001001111101 `c
#6380
b0000001001111110 `c
#6390
b0000001001111111 `c
#6400
b0000001010000000 `c
#6410
b0000001010000001 `c
#6420
b0000001010000010 `c
#6430
b0000001010000011 `c
#6440
b0000001010000100 `c
#6450
b0000001010000101 `c
#6460
b0000001010000110 `c
#6470
b0000001010000111 `c
#6480
b0000001010001000 `c
#6490
b0000001010001001 `c
#6500
b0000001010001010 `c
#6510
b0000001010001011 `c
#6520
b0000001010001100 `c
#6530
b0000001010001101 `c
#6540
b0000001010001110 `c
#6550
b0000001010001111 `c
#6560
b0000001010010000 `c
#6570
b0000001010010001 `c
#6580
b0000001010010010 `c
#6590
b0000001010010011 `c
#6600
b0000001010010100 `c
#6610
b0000001010010101 `c
#6620
b0000001010010110 `c
#6630
b0000001010010111 `c
#6640
b0000001010011000 `c
#6650
b0000001010011001 `c
#6660
b0000001010011010 `c
#6670
b0000001010011011 `c
#6680
b0000001010011100 `c
#6690
b0000001010011101 `c
#6700
b0000001010011110 `c
#6710
b0000001010011111 `c
#6720
b0000001010100000 `c
#6730
b0000001010100001 `c
#6740
b0000001010100010 `c
#6750
b0000001010100011 `c
#6760
b0000001010100100 `c
#6770
b0000001010100101 `c
#6780
b0000001010100110 `c
#6790
b0000001010100111 `c
#6800
b0000001010101000 `c
#6810
b0000001010101001 `c
#6820
b0000001010101010 `c
#6830
b0000001010101011 `c
#6840
b0000001010101100 `c
#6850
b0000001010101101 `c
#6860
b0000001010101110 `c
#6870
b0000001010101111 `c
#6880
b0000001010110000 `c
#6890
b0000001010110001 `c
#6900
b0000001010110010 `c
#6910
b0000001010110011 `c
#6920
b0000001010110100 `c
#6930
b0000001010110101 `c
#6940
b0000001010110110 `c
#6950
b0000001010110111 `c
#6960
b0000001010111000 `c
#6970
b0000001010111001 `c
#6980
b0000001010111010 `c
#6990
b0000001010111011 `c
#7000
b0000001010111100 `c
#7010
b0000001010111101 `c
#7020
b0000001010111110 `c
#7030
b0000001010111111 `c
#7040
b0000001011000000 `c
#7050
b0000001011000001 `c
#7060
b0000001011000010 `c
#7070
b0000001011000011 `c
#7080
b0000001011000100 `c
#7090
b0000001011000101 `c
#7100
b0000001011000110 `c
#7110
b0000001011000111 `c
#7120
b0000001011001000 `c
#7130
b0000001011001001 `c
#7140
b0000001011001010 `c
#7150
b0000001011001011 `c
#7160
b0000001011001100 `c
#7170
b0000001011001101 `c
#7180
b0000001011001110 `c
#7190
b0000001011001111 `c
#7200
b0000001011010000 `c
#7210
b0000001011010001 `c
#7220
b0000001011010010 `c
#7230
b0000001011010011 `c
#7240
b0000001011010100 `c
#7250
b0000001011010101 `c
#7260
b0000001011010110 `c
#7270
b0000001011010111 `c
#7280
b0000001011011000 `c
#7290
b0000001011011001 `c
#7300
b0000001011011010 `c
#7310
b0000001011011011 `c
#7320
b0000001011011100 `c
#7330
b0000001011011101 `c
#7340
b0000001011011110 `c
#7350
b0000001011011111 `c
#7360
b0000001011100000 `c
#7370
b0000001011100001 `c
#7380
b0000001011100010 `c
#7390
b0000001011100011 `c
#7400
b0000001011100100 `c
#7410
b0000001011100101 `c
#7420
b0000001011100110 `c
#7430
b0000001011100111 `c
#7440
b0000001011101000 `c
#7450
b0000001011101001 `c
#7460
b0000001011101010 `c
#7470
b0000001011101011 `c
#7480
b0000001011101100 `c
#7490
b0000001011101101 `c
#7500
b0000001011101110 `c
#7510
b0000001011101111 `c
#7520
b0000001011110000 `c
#7530
b0000001011110001 `c
#7540
b0000001011110010 `c
#7550
b0000001011110011 `c
#7560
b0000001011110100 `c
#7570
b0000001011110101 `c
#7580
b0000001011110110 `c
#7590
b0000001011110111 `c
#7600
b0000001011111000 `c
#7610
b0000001011111001 `c
#7620
b0000001011111010 `c
#7630
b0000001011111011 `c
#7640
b0000001011111100 `c
#7650
b0000001011111101 `c
#7660
b0000001011111110 `c
#7670
b0000001011111111 `c
#7680
b0000001100000000 `c
#7690
b0000001100000001 `c
#7700
b0000001100000010 `c
#7710
b0000001100000011 `c
#7720
b0000001100000100 `c
#7730
b0000001100000101 `c
#7740
b0000001100000110 `c
#7750
b0000001100000111 `c
#7760
b0000001100001000 `c
#7770
b0000001100001001 `c
#7780
b0000001100001010 `c
#7790
b0000001100001011 `c
#7800
b0000001100001100 `c
#7810
b0000001100001101 `c
#7820
b0000001100001110 `c
#7830
b0000001100001111 `c
#7840
b0000001100010000 `c
#7850
b0000001100010001 `c
#7860
b0000001100010010 `c
#7870
b0000001100010011 `c
#7880
b0000001100010100 `c
#7890
b0000001100010101 `c
#7900
b0000001100010110 `c
#7910
b0000001100010111 `c
#7920
b0000001100011000 `c
#7930
b0000001100011001 `c
#7940
b0000001100011010 `c
#7950
b0000001100011011 `c
#7960
b0000001100011100 `c
#7970
b0000001100011101 `c
#7980
b0000001100011110 `c
#7990
b0000001100011111 `c
#8000
b0000001100100000 `c
#8010
b0000001100100001 `c
#8020
b0000001100100010 `c
#8030
b0000001100100011 `c
#8040
b0000001100100100 `c
#8050
b0000001100100101 `c
#8060
b0000001100100110 `c
#8070
b0000001100100111 `c
#8080
b0000001100101000 `c
#8090
b0000001100101001 `c
#8100
b0000001100101010 `c
#8110
b0000001100101011 `c
#8120
b0000001100101100 `c
#8130
b0000001100101101 `c
#8140
b0000001100101110 `c
#8150
b0000001100101111 `c
#8160
b0000001100110000 `c
#8170
b0000001100110001 `c
#8180
b0000001100110010 `c
#8190
b0000001100110011 `c
#8200
b0000001100110100 `c
#8210
b0000001100110101 `c
#8220
b0000001100110110 `c
#8230
b0000001100110111 `c
#8240
b0000001100111000 `c
#8250
b0000001100111001 `c
#8260
b0000001100111010 `c
#8270
b0000001100111011 `c
#8280
b0000001100111100 `c
#8290
b0000001100111101 `c
#8300
b0000001100111110 `c
#8310
b0000001100111111 `c
#8320
b0000001101000000 `c
#8330
b0000001101000001 `c
#8340
b0000001101000010 `c
#8350
b0000001101000011 `c
#8360
b0000001101000100 `c
#8370
b0000001101000101 `c
#8380
b0000001101000110 `c
#8390
b0000001101000111 `c
#8400
b0000001101001000 `c
#8410
b0000001101001001 `c
#8420
b0000001101001010 `c
#8430
b0000001101001011 `c
#8440
b0000001101001100 `c
#8450
b0000001101001101 `c
#8460
b0000001101001110 `c
#8470
b0000001101001111 `c
#8480
b0000001101010000 `c
#8490
b0000001101010001 `c
#8500
b0000001101010010 `c
#8510
b0000001101010011 `c
#8520
b0000001101010100 `c
#8530
b0000001101010101 `c
#8540
b0000001101010110 `c
#8550
b0000001101010111 `c
#8560
b0000001101011000 `c
#8570
b0000001101011001 `c
#8580
b0000001101011010 `c
#8590
b0000001101011011 `c
#8600
b0000001101011100 `c
#8610
b0000001101011101 `c
#8620
b0000001101011110 `c
#8630
b0000001101011111 `c
#8640
b0000001101100000 `c
#8650
b0000001101100001 `c
#8660
b0000001101100010 `c
#8670
b0000001101100011 `c
#8680
b0000001101100100 `c
#8690
b0000001101100101 `c
#8700
b0000001101100110 `c
#8710
b0000001101100111 `c
#8720
b0000001101101000 `c
#8730
b0000001101101001 `c
#8740
b0000001101101010 `c
#8750
b0000001101101011 `c
#8760
b0000001101101100 `c
#8770
b0000001101101101 `c
#8780
b0000001101101110 `c
#8790
b0000001101101111 `c
#8800
b0000001101110000 `c
#8810
b0000001101110001 `c
#8820
b0000001101110010 `c
#8830
b0000001101110011 `c
#8840
b0000001101110100 `c
#8850
b0000001101110101 `c
#8860
b0000001101110110 `c
#8870
b0000001101110111 `c
#8880
b0000001101111000 `c
#8890
b0000001101111001 `c
#8900
b0000001101111010 `c
#8910
b0000001101111011 `c
#8920
b0000001101111100 `c
#8930
b0000001101111101 `c
#8940
b0000001101111110 `c
#8950
b0000001101111111 `c
#8960
b0000001110000000 `c
#8970
b0000001110000001 `c
#8980
b0000001110000010 `c
#8990
b0000001110000011 `c
#9000
b0000001110000100 `c
#9010
b0000001110000101 `c
#9020
b0000001110000110 `c
#9030
b0000001110000111 `c
#9040
b0000001110001000 `c
#9050
b0000001110001001 `c
#9060
b0000001110001010 `c
#9070
b0000001110001011 `c
#9080
b0000001110001100 `c
#9090
b0000001110001101 `c
#9100
b0000001110001110 `c
#9110
b0000001110001111 `c
#9120
b0000001110010000 `c
#9130
b0000001110010001 `c
#9140
b0000001110010010 `c
#9150
b0000001110010011 `c
#9160
b0000001110010100 `c
#9170
b0000001110010101 `c
#9180
b0000001110010110 `c
#9190
b0000001110010111 `c
#9200
b0000001110011000 `c
#9210
b0000001110011001 `c
#9220
b0000001110011010 `c
#9230
b0000001110011011 `c
#9240
b0000001110011100 `c
#9250
b0000001110011101 `c
#9260
b0000001110011110 `c
#9270
b0000001110011111 `c
#9280
b0000001110100000 `c
#9290
b0000001110100001 `c
#9300
b0000001110100010 `c
#9310
b0000001110100011 `c
#9320
b0000001110100100 `c
#9330
b0000001110100101 `c
#9340
b0000001110100110 `c
#9350
b0000001110100111 `c
#9360
b0000001110101000 `c
#9370
b0000001110101001 `c
#9380
b0000001110101010 `c
#9390
b0000001110101011 `c
#9400
b0000001110101100 `c
#9410
b0000001110101101 `c
#9420
b0000001110101110 `c
#9430
b0000001110101111 `c
#9440
b0000001110110000 `c
#9450
b0000001110110001 `c
#9460
b0000001110110010 `c
#9470
b0000001110110011 `c
#9480
b0000001110110100 `c
#9490
b0000001110110101 `c
#9500
b0000001110110110 `c
#9510
b0000001110110111 `c
#9520
b0000001110111000 `c
#9530
b0000001110111001 `c
#9540
b0000001110111010 `c
#9550
b0000001110111011 `c
#9560
b0000001110111100 `c
#9570
b0000001110111101 `c
#9580
b0000001110111110 `c
#9590
b0000001110111111 `c
#9600
b0000001111000000 `c
#9610
b0000001111000001 `c
#9620
b0000001111000010 `c
#9630
b0000001111000011 `c
#9640
b0000001111000100 `c
#9650
b0000001111000101 `c
#9660
b0000001111000110 `c
#9670
b0000001111000111 `c
#9680
b0000001111001000 `c
#9690
b0000001111001001 `c
#9700
b0000001111001010 `c
#9710
b0000001111001011 `c
#9720
b0000001111001100 `c
#9730
b0000001111001101 `c
#9740
b0000001111001110 `c
#9750
b0000001111001111 `c
#9760
b0000001111010000 `c
#9770
b0000001111010001 `c
#9780
b0000001111010010 `c
#9790
b0000001111010011 `c
#9800
b0000001111010100 `c
#9810
b0000001111010101 `c
#9820
b0000001111010110 `c
#9830
b0000001111010111 `c
#9840
b0000001111011000 `c
#9850
b0000001111011001 `c
#9860
b0000001111011010 `c
#9870
b0000001111011011 `c
#9880
b0000001111011100 `c
#9890
b0000001111011101 `c
#9900
b0000001111011110 `c
#9910
b0000001111011111 `c
#9920
b0000001111100000 `c
#9930
b0000001111100001 `c
#9940
b0000001111100010 `c
#9950
b0000001111100011 `c
#9960
b0000001111100100 `c
#9970
b0000001111100101 `c
#9980
b0000001111100110 `c
#9990
b0000001111100111 `c
#10000
b0000001111101000 `c