public/test/counter_500.vcd
$timescale 1ns $end
$scope module test $end
$var wire 32 `c cntr $end
$upscope $end
$enddefinitions $end
$dumpvars
#0
b00000000000000000000000000000000 `c
#10
b00111111100000000000000000000000 `c
#20
b01000000000000000000000000000000 `c
#30
b01000000010000000000000000000000 `c
#40
b01000000100000000000000000000000 `c
#50
b01000000101000000000000000000000 `c
#60
b01000000110000000000000000000000 `c
#70
b01000000111000000000000000000000 `c
#80
b01000001000000000000000000000000 `c
#90
b01000001000100000000000000000000 `c
#100
b01000001001000000000000000000000 `c
#110
b01000001001100000000000000000000 `c
#120
b01000001010000000000000000000000 `c
#130
b01000001010100000000000000000000 `c
#140
b01000001011000000000000000000000 `c
#150
b01000001011100000000000000000000 `c
#160
b01000001100000000000000000000000 `c
#170
b01000001100010000000000000000000 `c
#180
b01000001100100000000000000000000 `c
#190
b01000001100110000000000000000000 `c
#200
b01000001101000000000000000000000 `c
#210
b01000001101010000000000000000000 `c
#220
b01000001101100000000000000000000 `c
#230
b01000001101110000000000000000000 `c
#240
b01000001110000000000000000000000 `c
#250
b01000001110010000000000000000000 `c
#260
b01000001110100000000000000000000 `c
#270
b01000001110110000000000000000000 `c
#280
b01000001111000000000000000000000 `c
#290
b01000001111010000000000000000000 `c
#300
b01000001111100000000000000000000 `c
#310
b01000001111110000000000000000000 `c
#320
b01000010000000000000000000000000 `c
#330
b01000010000001000000000000000000 `c
#340
b01000010000010000000000000000000 `c
#350
b01000010000011000000000000000000 `c
#360
b01000010000100000000000000000000 `c
#370
b01000010000101000000000000000000 `c
#380
b01000010000110000000000000000000 `c
#390
b01000010000111000000000000000000 `c
#400
b01000010001000000000000000000000 `c
#410
b01000010001001000000000000000000 `c
#420
b01000010001010000000000000000000 `c
#430
b01000010001011000000000000000000 `c
#440
b01000010001100000000000000000000 `c
#450
b01000010001101000000000000000000 `c
#460
b01000010001110000000000000000000 `c
#470
b01000010001111000000000000000000 `c
#480
b01000010010000000000000000000000 `c
#490
b01000010010001000000000000000000 `c
#500
b01000010010010000000000000000000 `c
#510
b01000010010011000000000000000000 `c
#520
b01000010010100000000000000000000 `c
#530
b01000010010101000000000000000000 `c
#540
b01000010010110000000000000000000 `c
#550
b01000010010111000000000000000000 `c
#560
b01000010011000000000000000000000 `c
#570
b01000010011001000000000000000000 `c
#580
b01000010011010000000000000000000 `c
#590
b01000010011011000000000000000000 `c
#600
b01000010011100000000000000000000 `c
#610
b01000010011101000000000000000000 `c
#620
b01000010011110000000000000000000 `c
#630
b01000010011111000000000000000000 `c
#640
b01000010100000000000000000000000 `c
#650
b01000010100000100000000000000000 `c
#660
b01000010100001000000000000000000 `c
#670
b01000010100001100000000000000000 `c
#680
b01000010100010000000000000000000 `c
#690
b01000010100010100000000000000000 `c
#700
b01000010100011000000000000000000 `c
#710
b01000010100011100000000000000000 `c
#720
b01000010100100000000000000000000 `c
#730
b01000010100100100000000000000000 `c
#740
b01000010100101000000000000000000 `c
#750
b01000010100101100000000000000000 `c
#760
b01000010100110000000000000000000 `c
#770
b01000010100110100000000000000000 `c
#780
b01000010100111000000000000000000 `c
#790
b01000010100111100000000000000000 `c
#800
b01000010101000000000000000000000 `c
#810
b01000010101000100000000000000000 `c
#820
b01000010101001000000000000000000 `c
#830
b01000010101001100000000000000000 `c
#840
b01000010101010000000000000000000 `c
#850
b01000010101010100000000000000000 `c
#860
b01000010101011000000000000000000 `c
#870
b01000010101011100000000000000000 `c
#880
b01000010101100000000000000000000 `c
#890
b01000010101100100000000000000000 `c
#900
b01000010101101000000000000000000 `c
#910
b01000010101101100000000000000000 `c
#920
b01000010101110000000000000000000 `c
#930
b01000010101110100000000000000000 `c
#940
b01000010101111000000000000000000 `c
#950
b01000010101111100000000000000000 `c
#960
b01000010110000000000000000000000 `c
#970
b01000010110000100000000000000000 `c
#980
b01000010110001000000000000000000 `c
#990
b01000010110001100000000000000000 `c
#1000
b01000010110010000000000000000000 `c
#1010
b01000010110010100000000000000000 `c
#1020
b01000010110011000000000000000000 `c
#1030
b01000010110011100000000000000000 `c
#1040
b01000010110100000000000000000000 `c
#1050
b01000010110100100000000000000000 `c
#1060
b01000010110101000000000000000000 `c
#1070
b01000010110101100000000000000000 `c
#1080
b01000010110110000000000000000000 `c
#1090
b01000010110110100000000000000000 `c
#1100
b01000010110111000000000000000000 `c
#1110
b01000010110111100000000000000000 `c
#1120
b01000010111000000000000000000000 `c
#1130
b01000010111000100000000000000000 `c
#1140
b01000010111001000000000000000000 `c
#1150
b01000010111001100000000000000000 `c
#1160
b01000010111010000000000000000000 `c
#1170
b01000010111010100000000000000000 `c
#1180
b01000010111011000000000000000000 `c
#1190
b01000010111011100000000000000000 `c
#1200
b01000010111100000000000000000000 `c
#1210
b01000010111100100000000000000000 `c
#1220
b01000010111101000000000000000000 `c
#1230
b01000010111101100000000000000000 `c
#1240
b01000010111110000000000000000000 `c
#1250
b01000010111110100000000000000000 `c
#1260
b01000010111111000000000000000000 `c
#1270
b01000010111111100000000000000000 `c
#1280
b01000011000000000000000000000000 `c
#1290
b01000011000000010000000000000000 `c
#1300
b01000011000000100000000000000000 `c
#1310
b01000011000000110000000000000000 `c
#1320
b01000011000001000000000000000000 `c
#1330
b01000011000001010000000000000000 `c
#1340
b01000011000001100000000000000000 `c
#1350
b01000011000001110000000000000000 `c
#1360
b01000011000010000000000000000000 `c
#1370
b01000011000010010000000000000000 `c
#1380
b01000011000010100000000000000000 `c
#1390
b01000011000010110000000000000000 `c
#1400
b01000011000011000000000000000000 `c
#1410
b01000011000011010000000000000000 `c
#1420
b01000011000011100000000000000000 `c
#1430
b01000011000011110000000000000000 `c
#1440
b01000011000100000000000000000000 `c
#1450
b01000011000100010000000000000000 `c
#1460
b01000011000100100000000000000000 `c
#1470
b01000011000100110000000000000000 `c
#1480
b01000011000101000000000000000000 `c
#1490
b01000011000101010000000000000000 `c
#1500
b01000011000101100000000000000000 `c
#1510
b01000011000101110000000000000000 `c
#1520
b01000011000110000000000000000000 `c
#1530
b01000011000110010000000000000000 `c
#1540
b01000011000110100000000000000000 `c
#1550
b01000011000110110000000000000000 `c
#1560
b01000011000111000000000000000000 `c
#1570
b01000011000111010000000000000000 `c
#1580
b01000011000111100000000000000000 `c
#1590
b01000011000111110000000000000000 `c
#1600
b01000011001000000000000000000000 `c
#1610
b01000011001000010000000000000000 `c
#1620
b01000011001000100000000000000000 `c
#1630
b01000011001000110000000000000000 `c
#1640
b01000011001001000000000000000000 `c
#1650
b01000011001001010000000000000000 `c
#1660
b01000011001001100000000000000000 `c
#1670
b01000011001001110000000000000000 `c
#1680
b01000011001010000000000000000000 `c
#1690
b01000011001010010000000000000000 `c
#1700
b01000011001010100000000000000000 `c
#1710
b01000011001010110000000000000000 `c
#1720
b01000011001011000000000000000000 `c
#1730
b01000011001011010000000000000000 `c
#1740
b01000011001011100000000000000000 `c
#1750
b01000011001011110000000000000000 `c
#1760
b01000011001100000000000000000000 `c
#1770
b01000011001100010000000000000000 `c
#1780
b01000011001100100000000000000000 `c
#1790
b01000011001100110000000000000000 `c
#1800
b01000011001101000000000000000000 `c
#1810
b01000011001101010000000000000000 `c
#1820
b01000011001101100000000000000000 `c
#1830
b01000011001101110000000000000000 `c
#1840
b01000011001110000000000000000000 `c
#1850
b01000011001110010000000000000000 `c
#1860
b01000011001110100000000000000000 `c
#1870
b01000011001110110000000000000000 `c
#1880
b01000011001111000000000000000000 `c
#1890
b01000011001111010000000000000000 `c
#1900
b01000011001111100000000000000000 `c
#1910
b01000011001111110000000000000000 `c
#1920
b01000011010000000000000000000000 `c
#1930
b01000011010000010000000000000000 `c
#1940
b01000011010000100000000000000000 `c
#1950
b01000011010000110000000000000000 `c
#1960
b01000011010001000000000000000000 `c
#1970
b01000011010001010000000000000000 `c
#1980
b01000011010001100000000000000000 `c
#1990
b01000011010001110000000000000000 `c
#2000
b01000011010010000000000000000000 `c
#2010
b01000011010010010000000000000000 `c
#2020
b01000011010010100000000000000000 `c
#2030
b01000011010010110000000000000000 `c
#2040
b01000011010011000000000000000000 `c
#2050
b01000011010011010000000000000000 `c
#2060
b01000011010011100000000000000000 `c
#2070
b01000011010011110000000000000000 `c
#2080
b01000011010100000000000000000000 `c
#2090
b01000011010100010000000000000000 `c
#2100
b01000011010100100000000000000000 `c
#2110
b01000011010100110000000000000000 `c
#2120
b01000011010101000000000000000000 `c
#2130
b01000011010101010000000000000000 `c
#2140
b01000011010101100000000000000000 `c
#2150
b01000011010101110000000000000000 `c
#2160
b01000011010110000000000000000000 `c
#2170
b01000011010110010000000000000000 `c
#2180
b01000011010110100000000000000000 `c
#2190
b01000011010110110000000000000000 `c
#2200
b01000011010111000000000000000000 `c
#2210
b01000011010111010000000000000000 `c
#2220
b01000011010111100000000000000000 `c
#2230
b01000011010111110000000000000000 `c
#2240
b01000011011000000000000000000000 `c
#2250
b01000011011000010000000000000000 `c
#2260
b01000011011000100000000000000000 `c
#2270
b01000011011000110000000000000000 `c
#2280
b01000011011001000000000000000000 `c
#2290
b01000011011001010000000000000000 `c
#2300
b01000011011001100000000000000000 `c
#2310
b01000011011001110000000000000000 `c
#2320
b01000011011010000000000000000000 `c
#2330
b01000011011010010000000000000000 `c
#2340
b01000011011010100000000000000000 `c
#2350
b01000011011010110000000000000000 `c
#2360
b01000011011011000000000000000000 `c
#2370
b01000011011011010000000000000000 `c
#2380
b01000011011011100000000000000000 `c
#2390
b01000011011011110000000000000000 `c
#2400
b01000011011100000000000000000000 `c
#2410
b01000011011100010000000000000000 `c
#2420
b01000011011100100000000000000000 `c
#2430
b01000011011100110000000000000000 `c
#2440
b01000011011101000000000000000000 `c
#2450
b01000011011101010000000000000000 `c
#2460
b01000011011101100000000000000000 `c
#2470
b01000011011101110000000000000000 `c
#2480
b01000011011110000000000000000000 `c
#2490
b01000011011110010000000000000000 `c
#2500
b01000011011110100000000000000000 `c
#2510
b01000011011110110000000000000000 `c
#2520
b01000011011111000000000000000000 `c
#2530
b01000011011111010000000000000000 `c
#2540
b01000011011111100000000000000000 `c
#2550
b01000011011111110000000000000000 `c
#2560
b01000011100000000000000000000000 `c
#2570
b01000011100000001000000000000000 `c
#2580
b01000011100000010000000000000000 `c
#2590
b01000011100000011000000000000000 `c
#2600
b01000011100000100000000000000000 `c
#2610
b01000011100000101000000000000000 `c
#2620
b01000011100000110000000000000000 `c
#2630
b01000011100000111000000000000000 `c
#2640
b01000011100001000000000000000000 `c
#2650
b01000011100001001000000000000000 `c
#2660
b01000011100001010000000000000000 `c
#2670
b01000011100001011000000000000000 `c
#2680
b01000011100001100000000000000000 `c
#2690
b01000011100001101000000000000000 `c
#2700
b01000011100001110000000000000000 `c
#2710
b01000011100001111000000000000000 `c
#2720
b01000011100010000000000000000000 `c
#2730
b01000011100010001000000000000000 `c
#2740
b01000011100010010000000000000000 `c
#2750
b01000011100010011000000000000000 `c
#2760
b01000011100010100000000000000000 `c
#2770
b01000011100010101000000000000000 `c
#2780
b01000011100010110000000000000000 `c
#2790
b01000011100010111000000000000000 `c
#2800
b01000011100011000000000000000000 `c
#2810
b01000011100011001000000000000000 `c
#2820
b01000011100011010000000000000000 `c
#2830
b01000011100011011000000000000000 `c
#2840
b01000011100011100000000000000000 `c
#2850
b01000011100011101000000000000000 `c
#2860
b01000011100011110000000000000000 `c
#2870
b01000011100011111000000000000000 `c
#2880
b01000011100100000000000000000000 `c
#2890
b01000011100100001000000000000000 `c
#2900
b01000011100100010000000000000000 `c
#2910
b01000011100100011000000000000000 `c
#2920
b01000011100100100000000000000000 `c
#2930
b01000011100100101000000000000000 `c
#2940
b01000011100100110000000000000000 `c
#2950
b01000011100100111000000000000000 `c
#2960
b01000011100101000000000000000000 `c
#2970
b01000011100101001000000000000000 `c
#2980
b01000011100101010000000000000000 `c
#2990
b01000011100101011000000000000000 `c
#3000
b01000011100101100000000000000000 `c
#3010
b01000011100101101000000000000000 `c
#3020
b01000011100101110000000000000000 `c
#3030
b01000011100101111000000000000000 `c
#3040
b01000011100110000000000000000000 `c
#3050
b01000011100110001000000000000000 `c
#3060
b01000011100110010000000000000000 `c
#3070
b01000011100110011000000000000000 `c
#3080
b01000011100110100000000000000000 `c
#3090
b01000011100110101000000000000000 `c
#3100
b01000011100110110000000000000000 `c
#3110
b01000011100110111000000000000000 `c
#3120
b01000011100111000000000000000000 `c
#3130
b01000011100111001000000000000000 `c
#3140
b01000011100111010000000000000000 `c
#3150
b01000011100111011000000000000000 `c
#3160
b01000011100111100000000000000000 `c
#3170
b01000011100111101000000000000000 `c
#3180
b01000011100111110000000000000000 `c
#3190
b01000011100111111000000000000000 `c
#3200
b01000011101000000000000000000000 `c
#3210
b01000011101000001000000000000000 `c
#3220
b01000011101000010000000000000000 `c
#3230
b01000011101000011000000000000000 `c
#3240
b01000011101000100000000000000000 `c
#3250
b01000011101000101000000000000000 `c
#3260
b01000011101000110000000000000000 `c
#3270
b01000011101000111000000000000000 `c
#3280
b01000011101001000000000000000000 `c
#3290
b01000011101001001000000000000000 `c
#3300
b01000011101001010000000000000000 `c
#3310
b01000011101001011000000000000000 `c
#3320
b01000011101001100000000000000000 `c
#3330
b01000011101001101000000000000000 `c
#3340
b01000011101001110000000000000000 `c
#3350
b01000011101001111000000000000000 `c
#3360
b01000011101010000000000000000000 `c
#3370
b01000011101010001000000000000000 `c
#3380
b01000011101010010000000000000000 `c
#3390
b01000011101010011000000000000000 `c
#3400
b01000011101010100000000000000000 `c
#3410
b01000011101010101000000000000000 `c
#3420
b01000011101010110000000000000000 `c
#3430
b01000011101010111000000000000000 `c
#3440
b01000011101011000000000000000000 `c
#3450
b01000011101011001000000000000000 `c
#3460
b01000011101011010000000000000000 `c
#3470
b01000011101011011000000000000000 `c
#3480
b01000011101011100000000000000000 `c
#3490
b01000011101011101000000000000000 `c
#3500
b01000011101011110000000000000000 `c
#3510
b01000011101011111000000000000000 `c
#3520
b01000011101100000000000000000000 `c
#3530
b01000011101100001000000000000000 `c
#3540
b01000011101100010000000000000000 `c
#3550
b01000011101100011000000000000000 `c
#3560
b01000011101100100000000000000000 `c
#3570
b01000011101100101000000000000000 `c
#3580
b01000011101100110000000000000000 `c
#3590
b01000011101100111000000000000000 `c
#3600
b01000011101101000000000000000000 `c
#3610
b01000011101101001000000000000000 `c
#3620
b01000011101101010000000000000000 `c
#3630
b01000011101101011000000000000000 `c
#3640
b01000011101101100000000000000000 `c
#3650
b01000011101101101000000000000000 `c
#3660
b01000011101101110000000000000000 `c
#3670
b01000011101101111000000000000000 `c
#3680
b01000011101110000000000000000000 `c
#3690
b01000011101110001000000000000000 `c
#3700
b01000011101110010000000000000000 `c
#3710
b01000011101110011000000000000000 `c
#3720
b01000011101110100000000000000000 `c
#3730
b01000011101110101000000000000000 `c
#3740
b01000011101110110000000000000000 `c
#3750
b01000011101110111000000000000000 `c
#3760
b01000011101111000000000000000000 `c
#3770
b01000011101111001000000000000000 `c
#3780
b01000011101111010000000000000000 `c
#3790
b01000011101111011000000000000000 `c
#3800
b01000011101111100000000000000000 `c
#3810
b01000011101111101000000000000000 `c
#3820
b01000011101111110000000000000000 `c
#3830
b01000011101111111000000000000000 `c
#3840
b01000011110000000000000000000000 `c
#3850
b01000011110000001000000000000000 `c
#3860
b01000011110000010000000000000000 `c
#3870
b01000011110000011000000000000000 `c
#3880
b01000011110000100000000000000000 `c
#3890
b01000011110000101000000000000000 `c
#3900
b01000011110000110000000000000000 `c
#3910
b01000011110000111000000000000000 `c
#3920
b01000011110001000000000000000000 `c
#3930
b01000011110001001000000000000000 `c
#3940
b01000011110001010000000000000000 `c
#3950
b01000011110001011000000000000000 `c
#3960
b01000011110001100000000000000000 `c
#3970
b01000011110001101000000000000000 `c
#3980
b01000011110001110000000000000000 `c
#3990
b01000011110001111000000000000000 `c
#4000
b01000011110010000000000000000000 `c
#4010
b01000011110010001000000000000000 `c
#4020
b01000011110010010000000000000000 `c
#4030
b01000011110010011000000000000000 `c
#4040
b01000011110010100000000000000000 `c
#4050
b01000011110010101000000000000000 `c
#4060
b01000011110010110000000000000000 `c
#4070
b01000011110010111000000000000000 `c
#4080
b01000011110011000000000000000000 `c
#4090
b01000011110011001000000000000000 `c
#4100
b01000011110011010000000000000000 `c
#4110
b01000011110011011000000000000000 `c
#4120
b01000011110011100000000000000000 `c
#4130
b01000011110011101000000000000000 `c
#4140
b01000011110011110000000000000000 `c
#4150
b01000011110011111000000000000000 `c
#4160
b01000011110100000000000000000000 `c
#4170
b01000011110100001000000000000000 `c
#4180
b01000011110100010000000000000000 `c
#4190
b01000011110100011000000000000000 `c
#4200
b01000011110100100000000000000000 `c
#4210
b01000011110100101000000000000000 `c
#4220
b01000011110100110000000000000000 `c
#4230
b01000011110100111000000000000000 `c
#4240
b01000011110101000000000000000000 `c
#4250
b01000011110101001000000000000000 `c
#4260
b01000011110101010000000000000000 `c
#4270
b01000011110101011000000000000000 `c
#4280
b01000011110101100000000000000000 `c
#4290
b01000011110101101000000000000000 `c
#4300
b01000011110101110000000000000000 `c
#4310
b01000011110101111000000000000000 `c
#4320
b01000011110110000000000000000000 `c
#4330
b01000011110110001000000000000000 `c
#4340
b01000011110110010000000000000000 `c
#4350
b01000011110110011000000000000000 `c
#4360
b01000011110110100000000000000000 `c
#4370
b01000011110110101000000000000000 `c
#4380
b01000011110110110000000000000000 `c
#4390
b01000011110110111000000000000000 `c
#4400
b01000011110111000000000000000000 `c
#4410
b01000011110111001000000000000000 `c
#4420
b01000011110111010000000000000000 `c
#4430
b01000011110111011000000000000000 `c
#4440
b01000011110111100000000000000000 `c
#4450
b01000011110111101000000000000000 `c
#4460
b01000011110111110000000000000000 `c
#4470
b01000011110111111000000000000000 `c
#4480
b01000011111000000000000000000000 `c
#4490
b01000011111000001000000000000000 `c
#4500
b01000011111000010000000000000000 `c
#4510
b01000011111000011000000000000000 `c
#4520
b01000011111000100000000000000000 `c
#4530
b01000011111000101000000000000000 `c
#4540
b01000011111000110000000000000000 `c
#4550
b01000011111000111000000000000000 `c
#4560
b01000011111001000000000000000000 `c
#4570
b01000011111001001000000000000000 `c
#4580
b01000011111001010000000000000000 `c
#4590
b01000011111001011000000000000000 `c
#4600
b01000011111001100000000000000000 `c
#4610
b01000011111001101000000000000000 `c
#4620
b01000011111001110000000000000000 `c
#4630
b01000011111001111000000000000000 `c
#4640
b01000011111010000000000000000000 `c
#4650
b01000011111010001000000000000000 `c
#4660
b01000011111010010000000000000000 `c
#4670
b01000011111010011000000000000000 `c
#4680
b01000011111010100000000000000000 `c
#4690
b01000011111010101000000000000000 `c
#4700
b01000011111010110000000000000000 `c
#4710
b01000011111010111000000000000000 `c
#4720
b01000011111011000000000000000000 `c
#4730
b01000011111011001000000000000000 `c
#4740
b01000011111011010000000000000000 `c
#4750
b01000011111011011000000000000000 `c
#4760
b01000011111011100000000000000000 `c
#4770
b01000011111011101000000000000000 `c
#4780
b01000011111011110000000000000000 `c
#4790
b01000011111011111000000000000000 `c
#4800
b01000011111100000000000000000000 `c
#4810
b01000011111100001000000000000000 `c
#4820
b01000011111100010000000000000000 `c
#4830
b01000011111100011000000000000000 `c
#4840
b01000011111100100000000000000000 `c
#4850
b01000011111100101000000000000000 `c
#4860
b01000011111100110000000000000000 `c
#4870
b01000011111100111000000000000000 `c
#4880
b01000011111101000000000000000000 `c
#4890
b01000011111101001000000000000000 `c
#4900
b01000011111101010000000000000000 `c
#4910
b01000011111101011000000000000000 `c
#4920
b01000011111101100000000000000000 `c
#4930
b01000011111101101000000000000000 `c
#4940
b01000011111101110000000000000000 `c
#4950
b01000011111101111000000000000000 `c
#4960
b01000011111110000000000000000000 `c
#4970
b01000011111110001000000000000000 `c
#4980
b01000011111110010000000000000000 `c
#4990
b01000011111110011000000000000000 `c
#5000
b01000011111110100000000000000000 `c