public/test/sinus_200.vcd
$timescale 1ns $end
$scope module test $end
$var wire 32 `c sinsig $end
$upscope $end
$enddefinitions $end
$dumpvars
#0
b00000000000000000000000000000000 `c
#10
b00111101110011000111010101110110 `c
#20
b00111110010010110110111111111001 `c
#30.000000000000004
b00111110100101110100111001101101 `c
#40
b00111110110001110110000111010111 `c
#50
b00111110111101010111011101000100 `c
#60
b00111111000100001000110001101001 `c
#70
b00111111001001001110101101110011 `c
#80
b00111111001101111010010010100110 `c
#89.99999999999999
b00111111010010001000100000011101 `c
#99.99999999999999
b00111111010101110110101010100100 `c
#109.99999999999999
b00111111011001000010011000101010 `c
#120
b00111111011011101001101000011101 `c
#130
b00111111011101101010101111000000 `c
#140
b00111111011111000100011001101111 `c
#150.00000000000003
b00111111011111110101101111010101 `c
#160.00000000000003
b00111111011111111110010000001110 `c
#170.00000000000003
b00111111011111011101110110111111 `c
#180.00000000000006
b00111111011110010100111000010100 `c
#190.00000000000006
b00111111011100100100000010111001 `c
#200.00000000000006
b00111111011010001100011110110111 `c
#210.00000000000006
b00111111010111001111101101001010 `c
#220.00000000000006
b00111111010011101111100110011111 `c
#230.00000000000006
b00111111001111101110011010001001 `c
#240.00000000000009
b00111111001011001110101100101000 `c
#250.00000000000009
b00111111000110010011010101111000 `c
#260.0000000000001
b00111111000000111111011111100110 `c
#270.0000000000001
b00111110110110101101000110001001 `c
#280.0000000000001
b00111110101010111000001110010001 `c
#290.0000000000001
b00111110011101001111110111000111 `c
#300.0000000000001
b00111110000100001000000111000011 `c
#310.0000000000001
b00111101001010100101000001111100 `c
#320.00000000000017
b10111101011011110001100110111010 `c
#330.00000000000017
b10111110001000011000100000010110 `c
#340.00000000000017
b10111110100000101101011001001001 `c
#350.00000000000017
b10111110101100111001100111011100 `c
#360.00000000000017
b10111110111000101001001000001010 `c
#370.00000000000017
b10111111000001111010001101010111 `c
#380.0000000000002
b10111111000111001010001010111000 `c
#390.0000000000002
b10111111001100000001000101110001 `c
#400.00000000000017
b10111111010000011011110111001111 `c
#410.0000000000001
b10111111010100010111101010011100 `c
#420.0000000000001
b10111111010111110001111110010111 `c
#430.00000000000006
b10111111011010101000100111011010 `c
#440.00000000000006
b10111111011100111001110000110010 `c
#450
b10111111011110100011111101101010 `c
#459.99999999999994
b10111111011111100110001010001001 `c
#469.99999999999994
b10111111011111111111101011111000 `c
#479.9999999999999
b10111111011111110000010010100101 `c
#489.9999999999999
b10111111011110111000001000000100 `c
#499.99999999999983
b10111111011101010111110000010000 `c
#509.9999999999998
b10111111011011010000001000110001 `c
#519.9999999999998
b10111111011000100010101000010110 `c
#529.9999999999998
b10111111010101010000111101111011 `c
#539.9999999999997
b10111111010001011101001111100101 `c
#549.9999999999997
b10111111001101001001111001001010 `c
#559.9999999999997
b10111111001000011001101010110001 `c
#569.9999999999995
b10111111000011001111100110111010 `c
#579.9999999999995
b10111110111011011110000001010110 `c
#589.9999999999995
b10111110101111110110110011000011 `c
#599.9999999999994
b10111110100011110000111110001100 `c
#609.9999999999994
b10111110001110101000100011001111 `c
#619.9999999999994
b10111101101010100010101011000111 `c
#629.9999999999993
b00111100100010011011110101001110 `c
#639.9999999999993
b00111101111011101011000101011001 `c
#649.9999999999993
b00111110010111000100100001101010 `c
#659.9999999999992
b00111110100111111000001001011001 `c
#669.9999999999992
b00111110110011110100100001111101 `c
#679.9999999999992
b00111110111111001111110001101101 `c
#689.9999999999991
b00111111000101000001010010100001 `c
#699.9999999999991
b00111111001010000011000001000110 `c
#709.9999999999991
b00111111001110101001110110110111 `c
#719.9999999999991
b00111111010010110010110111010001 `c
#729.999999999999
b00111111010110011011011000110111 `c
#739.999999999999
b00111111011001100001000110111100 `c
#749.999999999999
b00111111011100000010000011000100 `c
#759.9999999999989
b00111111011101111100100110010101 `c
#769.9999999999989
b00111111011111001111100010011000 `c
#779.9999999999989
b00111111011111111010000010001001 `c
#789.9999999999987
b00111111011111111011101010011111 `c
#799.9999999999987
b00111111011111010100011010010101 `c
#809.9999999999987
b00111111011110000100101010110011 `c
#819.9999999999986
b00111111011100001101001110111000 `c
#829.9999999999986
b00111111011001101111010010111100 `c
#839.9999999999986
b00111111010110101100011011111110 `c
#849.9999999999986
b00111111010011000110100110100111 `c
#859.9999999999985
b00111111001111000000000101110011 `c
#869.9999999999985
b00111111001010011011100001011010 `c
#879.9999999999985
b00111111000101011011110100100010 `c
#889.9999999999984
b00111111000000000100001011100111 `c
#899.9999999999984
b00111110110100110000000100110010 `c
#909.9999999999984
b00111110101000110110000011011100 `c
#919.9999999999983
b00111110011001000011110101000001 `c
#929.9999999999983
b00111101111111101110000111110110 `c
#939.9999999999983
b00111100110010101111010111010101 `c
#949.9999999999982
b10111101100110011110100011010101 `c
#959.9999999999982
b10111110001100101000001010111000 `c
#969.9999999999982
b10111110100010110010010000110101 `c
#979.9999999999981
b10111110101110111010001100100111 `c
#989.9999999999981
b10111110111010100100001000100101 `c
#999.9999999999981
b10111111000010110100010011111000 `c
#1009.999999999998
b10111111001000000000010010100001 `c
#1019.999999999998
b10111111001100110010101011111101 `c
#1029.999999999998
b10111111010001001000011100001111 `c
#1039.999999999998
b10111111010100111110110001101111 `c
#1049.999999999998
b10111111011000010011001110111110 `c
#1059.9999999999977
b10111111011011000011101100000011 `c
#1069.9999999999977
b10111111011101001110011000001000 `c
#1079.9999999999977
b10111111011110110001111010100011 `c
#1089.9999999999977
b10111111011111101101010011101001 `c
#1099.9999999999977
b10111111011111111111111101011100 `c
#1109.9999999999977
b10111111011111101001101100000000 `c
#1119.9999999999977
b10111111011110101010101101100100 `c
#1129.9999999999975
b10111111011101000011101010011011 `c
#1139.9999999999975
b10111111011010110101100100011101 `c
#1149.9999999999975
b10111111011000000001110110100010 `c
#1159.9999999999975
b10111111010100101010010011100101 `c
#1169.9999999999975
b10111111010000110001000101011011 `c
#1179.9999999999975
b10111111001100011000101011011100 `c
#1189.9999999999973
b10111111000111100011111000111100 `c
#1199.9999999999973
b10111111000010010101110011011000 `c
#1209.9999999999973
b10111110111001100011100000110001 `c
#1219.9999999999973
b10111110101101110110100111010100 `c
#1229.9999999999973
b10111110100001101100011001010001 `c
#1239.9999999999973
b10111110001010011001010000100100 `c
#1249.9999999999973
b10111101100001111101001111000110 `c
#1259.999999999997
b00111101000010011011100001010010 `c
#1269.999999999997
b00111110000010000110110111111011 `c
#1279.999999999997
b00111110011011010001000011101001 `c
#1289.999999999997
b00111110101001111010101010111011 `c
#1299.999999999997
b00111110110101110010000000100010 `c
#1309.999999999997
b00111111000000100011011110100011 `c
#1319.9999999999968
b00111111000101111001001000100001 `c
#1329.9999999999968
b00111111001010110110100011101101 `c
#1339.9999999999968
b00111111001111011000100101000110 `c
#1349.9999999999968
b00111111010011011100010011010001 `c
#1359.9999999999968
b00111111010110111111001000000111 `c
#1369.9999999999968
b00111111011001111110110010100110 `c
#1379.9999999999966
b00111111011100011001011000001010 `c
#1389.9999999999966
b00111111011110001101010101111100 `c
#1399.9999999999966
b00111111011111011001100001110010 `c
#1409.9999999999966
b00111111011111111101001010111101 `c
#1419.9999999999966
b00111111011111110111111010101101 `c
#1429.9999999999966
b00111111011111001001110100010110 `c
#1439.9999999999966
b00111111011101110011010101011001 `c
#1449.9999999999964
b00111111011011110101010101001000 `c
#1459.9999999999964
b00111111011001010001000100001001 `c
#1469.9999999999964
b00111111010110001000001011011101 `c
#1479.9999999999964
b00111111010010011100101011100011 `c
#1489.9999999999964
b00111111001110010000111011000001 `c
#1499.9999999999964
b00111111001001100111100101000100 `c
#1509.9999999999961
b00111111000100100011100111110101 `c
#1519.9999999999961
b00111110111110010000100101000000 `c
#1529.9999999999961
b00111110110010110010000110010101 `c
#1539.9999999999961
b00111110100110110011001001010100 `c
#1549.9999999999961
b00111110010100110110110000110110 `c
#1559.9999999999961
b00111101110111001010110111110010 `c
#1569.999999999996
b00111100000000100111100000000011 `c
#1579.999999999996
b10111101101111000011100110101001 `c
#1589.999999999996
b10111110010000110111000001101111 `c
#1599.999999999996
b10111110100100110110100000010000 `c
#1609.999999999996
b10111110110000111001111011011101 `c
#1619.999999999996
b10111110111100011110000101001011 `c
#1629.9999999999961
b10111111000011101101110010000011 `c
#1639.9999999999964
b10111111001000110101101011110110 `c
#1649.9999999999964
b10111111001101100011011110010000 `c
#1659.9999999999966
b10111111010001110100001000010101 `c
#1669.9999999999968
b10111111010101100100111011101100 `c
#1679.9999999999968
b10111111011000110011011110011000 `c
#1689.999999999997
b10111111011011011101101100010010 `c
#1699.9999999999973
b10111111011101100001111000100101 `c
#1709.9999999999973
b10111111011110111110101110101111 `c
#1719.9999999999975
b10111111011111110011010011011000 `c
#1729.9999999999975
b10111111011111111111000100111000 `c
#1739.9999999999977
b10111111011111100001111011101101 `c
#1749.999999999998
b10111111011110011100001010100000 `c
#1759.999999999998
b10111111011100101110011101111001 `c
#1769.9999999999982
b10111111011010011001111100000001 `c
#1779.9999999999982
b10111111010111100000000011110110 `c
#1789.9999999999984
b10111111010100000010101100010001 `c
#1799.9999999999986
b10111111010000000100000010110011 `c
#1809.9999999999986
b10111111001011100110101010010100 `c
#1819.9999999999989
b10111111000110101101011001010011 `c
#1829.999999999999
b10111111000001011011011000000100 `c
#1839.999999999999
b10111110110111100111111101100011 `c
#1849.9999999999993
b10111110101011110101100110011111 `c
#1859.9999999999995
b10111110011111001110011010101010 `c
#1869.9999999999995
b10111110000110001001001100110011 `c
#1879.9999999999998
b10111101010010101110010111100010 `c
#1889.9999999999998
b00111101010011101000100000000101 `c
#1900
b00111110000110010111100101101001 `c
#1910.0000000000002
b00111110011111011100100001000000 `c
#1920.0000000000002
b00111110101011111100011011111001 `c
#1930.0000000000005
b00111110110111101110100000110101 `c
#1940.0000000000005
b00111111000001011110011110100011 `c
#1950.0000000000007
b00111111000110110000010010101001 `c
#1960.000000000001
b00111111001011101001010100101011 `c
#1970.000000000001
b00111111010000000110011100011110 `c
#1980.0000000000011
b00111111010100000100110011101100 `c
#1990.0000000000014
b00111111010111100001110111101100 `c
#2000.0000000000014
b00111111011010011011011011001000 `c
#2010.0000000000016
b00111111011100101111100111010100 `c
#2020.0000000000018
b00111111011110011100111101100000 `c
#2030.0000000000018
b00111111011111100010010111110000 `c
#2040.000000000002
b00111111011111111111001001101101 `c
#2050.0000000000023
b00111111011111110011000000111101 `c
#2060.0000000000023
b00111111011110111110000101001111 `c
#2070.0000000000023
b00111111011101100000111000011011 `c
#2080.0000000000027
b00111111011011011100010110000110 `c
#2090.0000000000027
b00111111011000110001110011000001 `c
#2100.0000000000027
b00111111010101100010111100010000 `c
#2110.000000000003
b00111111010001110001110110000101 `c
#2120.000000000003
b00111111001101100000111010101001 `c
#2130.000000000003
b00111111001000110010111000100001 `c
#2140.0000000000036
b00111111000011101010110000110011 `c
#2150.0000000000036
b00111110111100010111101010101011 `c
#2160.0000000000036
b00111110110000110011001101000100 `c
#2170.0000000000036
b00111110100100101111100010010001 `c
#2180.000000000004
b00111110010000101000101111011110 `c
#2190.000000000004
b00111101101110100110100111110110 `c
#2200.000000000004
b10111100000100010000010100010101 `c
#2210.0000000000045
b10111101110111100111110011011101 `c
#2220.0000000000045
b10111110010101000101000000000000 `c
#2230.0000000000045
b10111110100110111010000101000000 `c
#2240.000000000005
b10111110110010111000110001101011 `c
#2250.000000000005
b10111110111110010110111011110000 `c
#2260.000000000005
b10111111000100100110100110111000 `c
#2270.0000000000055
b10111111001001101010010101110111 `c
#2280.0000000000055
b10111111001110010011011011110100 `c
#2290.0000000000055
b10111111010010011110111010101111 `c
#2300.0000000000055
b10111111010110001010000111100111 `c
#2310.000000000006
b10111111011001010010101100000000 `c
#2320.000000000006
b10111111011011110110100111101011 `c
#2330.000000000006
b10111111011101110100010001110010 `c
#2340.0000000000064
b10111111011111001010011001111111 `c
#2350.0000000000064
b10111111011111111000001001001110 `c
#2360.0000000000064
b10111111011111111101000010001101 `c
#2370.000000000007
b10111111011111011001000001110110 `c
#2380.000000000007
b10111111011110001100011111001000 `c
#2390.000000000007
b10111111011100011000001011000010 `c
#2400.0000000000073
b10111111011001111101001111111100 `c
#2410.0000000000073
b10111111010110111101010000111001 `c
#2420.0000000000073
b10111111010011011010001000101011 `c
#2430.0000000000077
b10111111001111010110001000100001 `c
#2440.0000000000077
b10111111001010110011110110101101 `c
#2450.0000000000077
b10111111000101110110001100110101 `c
#2460.000000000008
b10111111000000100000010110000011 `c
#2470.000000000008
b10111110110101101011011001111001 `c
#2480.000000000008
b10111110101001110011110010111000 `c
#2490.000000000008
b10111110011011000010111001100011 `c
#2500.0000000000086
b10111110000001111000011100111000 `c
#2510.0000000000086
b10111101000001100001010110001000 `c
#2520.0000000000086
b00111101100010011010010001100011 `c
#2530.000000000009
b00111110001010100111100110111100 `c
#2540.000000000009
b00111110100001110011011010011100 `c
#2550.000000000009
b00111110101101111101011001111111 `c
#2560.0000000000095
b00111110111001101010000000100110 `c
#2570.0000000000095
b00111111000010011000110111110010 `c
#2580.0000000000095
b00111111000111100110101111111001 `c
#2590.00000000001
b00111111001100011011010011000111 `c
#2600.00000000001
b00111111010000110011011100001000 `c
#2610.00000000001
b00111111010100101100010111110100 `c
#2620.00000000001
b00111111011000000011100110111110 `c
#2630.0000000000105
b00111111011010110110111111111110 `c
#2640.0000000000105
b00111111011101000100110000000111 `c
#2650.0000000000105
b00111111011110101011011100101111 `c
#2660.000000000011
b00111111011111101010000100001010 `c
#2670.000000000011
b00111111011111111111111110010111 `c
#2680.000000000011
b00111111011111101100111101010100 `c
#2690.0000000000114
b00111111011110110001001101001101 `c
#2700.0000000000114
b00111111011101001101010100001110 `c
#2710.0000000000114
b00111111011011000010010010001111 `c
#2720.000000000012
b00111111011000010001100000001010 `c
#2730.000000000012
b00111111010100111100101111000011 `c
#2740.000000000012
b00111111010001000110000110111101 `c
#2750.0000000000123
b00111111001100110000000101100101 `c
#2760.0000000000123
b00111111000111111101011100101110 `c
#2770.0000000000123
b00111111000010110001010000011101 `c
#2780.0000000000127
b00111110111010011101101010011100 `c
#2790.0000000000127
b00111110101110110011011011010010 `c
#2800.0000000000127
b00111110100010101011010000101010 `c
#2810.0000000000127
b00111110001100011001110101110001 `c
#2820.000000000013
b00111101100110000001100001111011 `c
#2830.000000000013
b10111100110100100011101111010111 `c
#2840.000000000013
b10111110000000000101011111111011 `c
#2850.0000000000136
b10111110011001010010000000110011 `c
#2860.0000000000136
b10111110101000111100111100101100 `c
#2870.0000000000136
b10111110110100110110101100111101 `c
#2880.000000000014
b10111111000000000111010101000011 `c
#2890.000000000014
b10111111000101011110110001010100 `c
#2900.000000000014
b10111111001010011110001111101001 `c
#2910.0000000000146
b10111111001111000010100011101111 `c
#2920.0000000000146
b10111111010011001000110010101100 `c
#2930.0000000000146
b10111111010110101110010100110011 `c
#2940.0000000000146
b10111111011001110000110111010010 `c
#2950.000000000015
b10111111011100001110011101101111 `c
#2960.000000000015
b10111111011110000101100011011001 `c
#2970.000000000015
b10111111011111010100111100000111 `c
#2980.0000000000155
b10111111011111111011110101000110 `c
#2990.0000000000155
b10111111011111111001110101011111 `c
#3000.0000000000155
b10111111011111001110111110100100 `c
#3010.000000000016
b10111111011101111011101011101111 `c
#3020.000000000016
b10111111011100000000110010010001 `c
#3030.000000000016
b10111111011001011111100000101111 `c
#3040.0000000000164
b10111111010110011001011110010010 `c
#3050.0000000000164
b10111111010010110000101001100011 `c
#3060.0000000000164
b10111111001110100111010111011010 `c
#3070.000000000017
b10111111001010000000010001100000 `c
#3080.000000000017
b10111111000100111110010100100010 `c
#3090.000000000017
b10111110111111001001011100110001 `c
#3100.0000000000173
b10111110110011101101111000000110 `c
#3110.0000000000173
b10111110100111110001001110110111 `c
#3120.0000000000173
b10111110010110110110010100000101 `c
#3130.0000000000173
b10111101111011001110001011011001 `c
#3140.0000000000177
b10111100100000100111011011110100 `c
#3150.0000000000177
b00111101101010111111101011001101 `c
#3160.0000000000177
b00111110001110110110110110111000 `c
#3170.000000000018
b00111110100011110111111101001111 `c
#3180.000000000018
b00111110101111111101100010110111 `c
#3190.000000000018
b00111110111011100100011101100110 `c
#3200.0000000000186
b00111111000011010010101001001101 `c
#3210.0000000000186
b00111111001000011100011111010001 `c
#3220.0000000000186
b00111111001101001100011110000110 `c
#3230.000000000019
b00111111010001011111100011010001 `c
#3240.000000000019
b00111111010101010010111110111010 `c
#3250.000000000019
b00111111011000100100010101010101 `c
#3260.000000000019
b00111111011011010001100000101011 `c
#3270.0000000000196
b00111111011101011000110010001100 `c
#3280.0000000000196
b00111111011110111000110011011000 `c
#3290.0000000000196
b00111111011111110000100110110110 `c
#3300.00000000002
b00111111011111111111101000111001 `c
#3310.00000000002
b00111111011111100101101111111011 `c
#3320.00000000002
b00111111011110100011001100011110 `c
#3330.0000000000205
b00111111011100111000101001001000 `c
#3340.0000000000205
b00111111011010100111001010000000 `c
#3350.0000000000205
b00111111010111110000001100001000 `c
#3360.000000000021
b00111111010100010101100100100001 `c
#3370.000000000021
b00111111010000011001011110111110 `c
#3380.000000000021
b00111111001011111110011100101100 `c
#3390.0000000000214
b00111111000111000111010010101010 `c
#3400.0000000000214
b00111111000001110111000111110111 `c
#3410.0000000000214
b00111110111000100010100110011111 `c
#3420.000000000022
b00111110101100110010110011010011 `c
#3430.000000000022
b00111110100000100110010110111001 `c
#3440.000000000022
b00111110001000001010001000101001 `c
#3450.000000000022
b00111101011010110111011111111101 `c
#3460.0000000000223
b10111101001011011111001011110110 `c
#3470.0000000000223
b10111110000100010110100000111110 `c
#3480.0000000000223
b10111110011101011101111111010001 `c
#3490.0000000000227
b10111110101010111111000100111100 `c
#3500.0000000000227
b10111110110110110011101011000010 `c
#3510.0000000000227
b10111111000001000010100111000011 `c
#3520.000000000023
b10111111000110010110010000010110 `c
#3530.000000000023
b10111111001011010001011000001111 `c
#3540.000000000023
b10111111001111110000110101001101 `c
#3550.0000000000236
b10111111010011110001101111011011 `c
#3560.0000000000236
b10111111010111010001100010100111 `c
#3570.0000000000236
b10111111011010001101111111101010 `c
#3580.0000000000236
b10111111011100100101001110000100 `c
#3590.000000000024
b10111111011110010101101101000111 `c
#3600.000000000024
b10111111011111011110010100111000 `c
#3610.000000000024
b10111111011111111110010110111011 `c
#3620.0000000000246
b10111111011111110101011110110000 `c
#3630.0000000000246
b10111111011111000011110010000100 `c
#3640.0000000000246
b10111111011101101001110000100111 `c
#3650.000000000025
b10111111011011101000010011111111 `c
#3660.000000000025
b10111111011001000000101110111110 `c
#3670.000000000025
b10111111010101110100101100101100 `c
#3680.0000000000255
b10111111010010000110001111101001 `c
#3690.0000000000255
b10111111001101110111110000010100 `c
#3700.0000000000255
b10111111001001001011111011101010 `c
#3710.000000000026
b10111111000100000101110001011011 `c
#3720.000000000026
b10111110111101010001000100010100 `c
#3730.000000000026
b10111110110001101111011010011001 `c
#3740.0000000000264
b10111110100101101101111100110010 `c
#3750.0000000000264
b10111110010010101000101111000101 `c
#3760.0000000000264
b10111101110010101010011000011110 `c
#3770.0000000000264
b00111010011010001101001100110010 `c
#3780.000000000027
b00111101110011100100010011000100 `c
#3790.000000000027
b00111110010011000101010000100011 `c
#3800.000000000027
b00111110100101111011110110011111 `c
#3810.0000000000273
b00111110110001111100110100001011 `c
#3820.0000000000273
b00111110111101011101110101100111 `c
#3830.0000000000273
b00111111000100001011110001101111 `c
#3840.0000000000277
b00111111001001010001011111110100 `c
#3850.0000000000277
b00111111001101111100110100101111 `c
#3860.0000000000277
b00111111010010001010110001000110 `c
#3870.000000000028
b00111111010101111000101000010010 `c
#3880.000000000028
b00111111011001000100000010001011 `c
#3890.000000000028
b00111111011011101010111100101110 `c
#3900.000000000028
b00111111011101101011101101001011 `c
#3910.0000000000286
b00111111011111000101000001001101 `c
#3920.0000000000286
b00111111011111110101111111101100 `c
#3930.0000000000286
b00111111011111111110001001010101 `c
#3940.000000000029
b00111111011111011101011000111000 `c
#3950.000000000029
b00111111011110010100000011010100 `c
#3960.000000000029
b00111111011100100010110111100001 `c
#3970.0000000000296
b00111111011010001010111101111000 `c
#3980.0000000000296
b00111111010111001101110111100010 `c
#3990.0000000000296
b00111111010011101101011101011000 `c
#4000.00000000003
b00111111001111101011111110111100 `c
#4010.00000000003
b00111111001011001100000000110111 `c
#4020.00000000003
b00111111000110010000011011010011 `c
#4030.0000000000305
b00111111000000111100011000000010 `c
#4040.0000000000305
b00111110110110100110100001000101 `c
#4050.0000000000305
b00111110101010110001010111011101 `c
#4060.000000000031
b00111110011101000001101110110000 `c
#4070.000000000031
b00111110000011111001101101000001 `c
#4080.000000000031
b00111101001001101010110111111001 `c
#4090.000000000031
b10111101011100101011101101101010 `c
#4100.000000000031
b10111110001000100110110111111011 `c
#4110.000000000032
b10111110100000110100011011010001 `c
#4120.000000000032
b10111110101101000000011011011011 `c
#4130.000000000032
b10111110111000101111101001101001 `c
#4140.000000000032
b10111111000001111101010010110001 `c
#4150.000000000032
b10111111000111001101000010111110 `c
#4160.000000000032
b10111111001100000011101110101110 `c
#4170.000000000032
b10111111010000011110001111010110 `c
#4180.000000000033
b10111111010100011001110000001100 `c
#4190.000000000033
b10111111010111110011110000011011 `c
#4200.000000000033
b10111111011010101010000100101000 `c
#4210.000000000033
b10111111011100111010111000001111 `c
#4220.000000000033
b10111111011110100100101110101000 `c
#4230.000000000033
b10111111011111100110100100001001 `c
#4240.000000000034
b10111111011111111111101110101010 `c
#4250.000000000034
b10111111011111101111111110000110 `c
#4260.000000000034
b10111111011110110111011100100010 `c
#4270.000000000034
b10111111011101010110101110000111 `c
#4280.000000000034
b10111111011011001110110000101011 `c
#4290.000000000034
b10111111011000100000111011001010 `c
#4300.000000000035
b10111111010101001110111100110001 `c
#4310.000000000035
b10111111010001011010111011101110 `c
#4320.000000000035
b10111111001101000111010100000110 `c
#4330.000000000035
b10111111001000010110110110001000 `c
#4340.000000000035
b10111111000011001100100100100001 `c
#4350.000000000035
b10111110111011010111100100111010 `c
#4360.000000000035
b10111110101111110000000011000110 `c
#4370.0000000000355
b10111110100011101001111111000010 `c
#4380.0000000000355
b10111110001110011010001111011100 `c
#4390.0000000000355
b10111101101010000101101010111000 `c
#4400.0000000000355
b00111100100100010000001110100001 `c
#4410.0000000000355
b00111101111100000111111111001101 `c
#4420.0000000000355
b00111110010111010010101111000100 `c
#4430.000000000036
b00111110100111111111000011110100 `c
#4440.000000000036
b00111110110011111011001011101010 `c
#4450.000000000036
b00111110111111010110000110011100 `c
#4460.000000000036
b00111111000101000100010000011000 `c
#4470.000000000036
b00111111001010000101110000100011 `c
#4480.000000000036
b00111111001110101100010110001011 `c
#4490.000000000036
b00111111010010110101000100110101 `c
#4500.000000000037
b00111111010110011101010011010000 `c
#4510.000000000037
b00111111011001100010101100111101 `c
#4520.000000000037
b00111111011100000011010011101011 `c
#4530.000000000037
b00111111011101111101100000101111 `c
#4540.000000000037
b00111111011111010000000101111111 `c
#4550.000000000037
b00111111011111111010001110100111 `c
#4560.000000000038
b00111111011111111011011111101011 `c
#4570.000000000038
b00111111011111010011111000010110 `c
#4580.000000000038
b00111111011110000011110001111111 `c
#4590.000000000038
b00111111011100001011111111110100 `c
#4600.000000000038
b00111111011001101101101110011010 `c
#4610.000000000038
b00111111010110101010100010111111 `c
#4620.000000000038
b00111111010011000100011010010111 `c
#4630.000000000039
b00111111001110111101100111101100 `c
#4640.000000000039
b00111111001010011000110011000010 `c
#4650.000000000039
b00111111000101011000110111101000 `c
#4660.000000000039
b00111111000000000001000010000100 `c
#4670.000000000039
b00111110110100101001011100011011 `c
#4680.000000000039
b00111110101000101111001010000100 `c
#4690.00000000004
b00111110011000110101101001000011 `c
#4700.00000000004
b00111101111111010001001111101000 `c
#4710.00000000004
b00111100110000111010111111001001 `c
#4720.00000000004
b10111101100110111011100100100110 `c
#4730.00000000004
b10111110001100110110011111110110 `c
#4740.00000000004
b10111110100010111001010000111010 `c
#4750.000000000041
b10111110101111000000111101110010 `c
#4760.000000000041
b10111110111010101010100110100010 `c
#4770.000000000041
b10111111000010110111010111001011 `c
#4780.000000000041
b10111111001000000011001000001100 `c
#4790.000000000041
b10111111001100110101010010001011 `c
#4800.000000000041
b10111111010001001010110001010110 `c
#4810.000000000041
b10111111010101000000110100010001 `c
#4820.000000000042
b10111111011000010100111101100110 `c
#4830.000000000042
b10111111011011000101000101101010 `c
#4840.000000000042
b10111111011101001111011011110110 `c
#4850.000000000042
b10111111011110110010100111101100 `c
#4860.000000000042
b10111111011111101101101001110000 `c
#4870.000000000042
b10111111011111111111111100010011 `c
#4880.000000000043
b10111111011111101001010011101000 `c
#4890.000000000043
b10111111011110101001111110001101 `c
#4900.000000000043
b10111111011101000010100100100010 `c
#4910.000000000043
b10111111011010110100001000110000 `c
#4920.000000000043
b10111111011000000000000101111011 `c
#4930.000000000043
b10111111010100101000001111001100 `c
#4940.000000000044
b10111111010000101110101110100100 `c
#4950.000000000044
b10111111001100010110000011101001 `c
#4960.000000000044
b10111111000111100001000001110111 `c
#4970.000000000044
b10111111000010010010101110110110 `c
#4980.000000000044
b10111110111001011101000000110000 `c
#4990.000000000044
b10111110101101101111110100100000 `c
#5000.000000000044
b10111110100001100101010111111111 `c
#5010.000000000045
b10111110001010001010111010000011 `c
#5020.000000000045
b10111101100001100000001100100011 `c
#5030.000000000045
b00111101000011010101101100010100 `c
#5040.000000000045
b00111110000010010101010010110111 `c
#5050.000000000045
b00111110011011011111001101100011 `c
#5060.000000000045
b00111110101010000001100010110101 `c
#5070.0000000000455
b00111110110101111000100111000000 `c
#5080.0000000000455
b00111111000000100110100110111101 `c
#5090.0000000000455
b00111111000101111100000100000110 `c
#5100.0000000000455
b00111111001010111001010000100100 `c
#5110.0000000000455
b00111111001111011011000001100010 `c
#5120.0000000000455
b00111111010011011110011101101100 `c
#5130.0000000000455
b00111111010111000000111111001010 `c
#5140.000000000046
b00111111011010000000010101000101 `c
#5150.000000000046
b00111111011100011010100101000101 `c
#5160.000000000046
b00111111011110001110001100100010 `c
#5170.000000000046
b00111111011111011010000001100001 `c
#5180.000000000046
b00111111011111111101010011100001 `c
#5190.000000000046
b00111111011111110111101011111110 `c
#5200.000000000047
b00111111011111001001001110100000 `c
#5210.000000000047
b00111111011101110010011000110011 `c
#5220.000000000047
b00111111011011110100000010011001 `c
#5230.000000000047
b00111111011001001111011100000110 `c
#5240.000000000047
b00111111010110000110001111001001 `c
#5250.000000000047
b00111111010010011010011100001101 `c
#5260.000000000047
b00111111001110001110011010000100 `c
#5270.000000000048
b00111111001001100100110100000111 `c
#5280.000000000048
b00111111000100100000101000101011 `c
#5290.000000000048
b00111110111110001010001110000011 `c
#5300.000000000048
b00111110110010101011011010110100 `c
#5310.000000000048
b00111110100110101100001101100001 `c
#5320.000000000048
b00111110010100101000100001100010 `c
#5330.000000000049
b00111101110110101101111011111100 `c
#5340.000000000049
b00111011111001111101010111010110 `c
#5350.000000000049
b10111101101111100000100101010010 `c
#5360.000000000049
b10111110010001000101010011110101 `c
#5370.000000000049
b10111110100100111101011110001000 `c
#5380.000000000049
b10111110110001000000101001101101 `c
#5390.00000000005
b10111110111100100100011111011111 `c
#5400.00000000005
b10111111000011110000110011001101 `c
#5410.00000000005
b10111111001000111000011111000010 `c
#5420.00000000005
b10111111001101100110000001101110 `c
#5430.00000000005
b10111111010001110110011010011011 `c
#5440.00000000005
b10111111010101100110111010111101 `c
#5450.00000000005
b10111111011000110101001001100010 `c
#5460.000000000051
b10111111011011011111000010010010 `c
#5470.000000000051
b10111111011101100010111000100011 `c
#5480.000000000051
b10111111011110111111011000000010 `c
#5490.000000000051
b10111111011111110011100101100110 `c
#5500.000000000051
b10111111011111111110111111110100 `c
#5510.000000000051
b10111111011111100001011111011100 `c
#5520.000000000052
b10111111011110011011010111010100 `c
#5530.000000000052
b10111111011100101101010100010010 `c
#5540.000000000052
b10111111011010011000011100101110 `c
#5550.000000000052
b10111111010111011110001111110101 `c
#5560.000000000052
b10111111010100000000100100101010 `c
#5570.000000000052
b10111111010000000001101000111111 `c
#5580.000000000053
b10111111001011100011111111110100 `c
#5590.000000000053
b10111111000110101010011111110101 `c
#5600.000000000053
b10111111000001011000010001011110 `c
#5610.000000000053
b10111110110111100001011010000100 `c
#5620.000000000053
b10111110101011101110110000111011 `c
#5630.000000000053
b10111110011111000000010100000111 `c
#5640.000000000053
b10111110000101111010110011110110 `c
#5650.000000000054
b10111101010001110100001110110101 `c
#5660.000000000054
b00111101010100100010101000011101 `c
#5670.000000000054
b00111110000110100101111110010111 `c
#5680.000000000054
b00111110011111101010100111001001 `c
#5690.000000000054
b00111110101100000011010001001011 `c
#5700.000000000054
b00111110110111110101000011111101 `c
#5710.000000000055
b00111111000001100001100100111100 `c
#5720.000000000055
b00111111000110110011001011110111 `c
#5730.000000000055
b00111111001011101011111110111001 `c
#5740.000000000055
b00111111010000001000110101111110 `c
#5750.000000000055
b00111111010100000110111010111101 `c
#5760.000000000055
b00111111010111100011101011010111 `c
#5770.000000000055
b00111111011010011100111010000010 `c
#5780.0000000000555
b00111111011100110000110000100010 `c
#5790.0000000000555
b00111111011110011101110000010010 `c
#5800.0000000000555
b00111111011111100010110011100111 `c
#5810.0000000000555
b00111111011111111111001110010110 `c
#5820.0000000000555
b00111111011111110010101110010101 `c
#5830.0000000000555
b00111111011110111101011011100010 `c
#5840.000000000056
b00111111011101011111111000000100 `c
#5850.000000000056
b00111111011011011010111111101110 `c
#5860.000000000056
b00111111011000110000000111011111 `c
#5870.000000000056
b00111111010101100000111100101001 `c
#5880.000000000056
b00111111010001101111100011101010 `c
#5890.000000000056
b00111111001101011110010110111001 `c
#5900.000000000056
b00111111001000110000000101000011 `c
