public/test/sinus_10.vcd
$timescale 1ns $end
$scope module test $end
$var wire 32 `c sinsig $end
$upscope $end
$enddefinitions $end
$dumpvars
#0
b00000000000000000000000000000000 `c
#10
b00111101110011000111010101110110 `c
#20
b00111110010010110110111111111001 `c
#30.000000000000004
b00111110100101110100111001101101 `c
#40
b00111110110001110110000111010111 `c
#50
b00111110111101010111011101000100 `c
#60
b00111111000100001000110001101001 `c
#70
b00111111001001001110101101110011 `c
#80
b00111111001101111010010010100110 `c
#89.99999999999999
b00111111010010001000100000011101 `c
#99.99999999999999
b00111111010101110110101010100100 `c
#109.99999999999999
b00111111011001000010011000101010 `c
#120
b00111111011011101001101000011101 `c
#130
b00111111011101101010101111000000 `c
#140
b00111111011111000100011001101111 `c
#150.00000000000003
b00111111011111110101101111010101 `c
#160.00000000000003
b00111111011111111110010000001110 `c
#170.00000000000003
b00111111011111011101110110111111 `c
#180.00000000000006
b00111111011110010100111000010100 `c
#190.00000000000006
b00111111011100100100000010111001 `c
#200.00000000000006
b00111111011010001100011110110111 `c
#210.00000000000006
b00111111010111001111101101001010 `c
#220.00000000000006
b00111111010011101111100110011111 `c
#230.00000000000006
b00111111001111101110011010001001 `c
#240.00000000000009
b00111111001011001110101100101000 `c
#250.00000000000009
b00111111000110010011010101111000 `c
#260.0000000000001
b00111111000000111111011111100110 `c
#270.0000000000001
b00111110110110101101000110001001 `c
#280.0000000000001
b00111110101010111000001110010001 `c
#290.0000000000001
b00111110011101001111110111000111 `c
#300.0000000000001
b00111110000100001000000111000011 `c
#310.0000000000001
b00111101001010100101000001111100 `c
#320.00000000000017
b10111101011011110001100110111010 `c
#330.00000000000017
b10111110001000011000100000010110 `c
#340.00000000000017
b10111110100000101101011001001001 `c
#350.00000000000017
b10111110101100111001100111011100 `c
#360.00000000000017
b10111110111000101001001000001010 `c
#370.00000000000017
b10111111000001111010001101010111 `c
#380.0000000000002
b10111111000111001010001010111000 `c
#390.0000000000002
b10111111001100000001000101110001 `c
#400.00000000000017
b10111111010000011011110111001111 `c
#410.0000000000001
b10111111010100010111101010011100 `c
#420.0000000000001
b10111111010111110001111110010111 `c
#430.00000000000006
b10111111011010101000100111011010 `c
#440.00000000000006
b10111111011100111001110000110010 `c
#450
b10111111011110100011111101101010 `c
#459.99999999999994
b10111111011111100110001010001001 `c
#469.99999999999994
b10111111011111111111101011111000 `c
#479.9999999999999
b10111111011111110000010010100101 `c
#489.9999999999999
b10111111011110111000001000000100 `c
#499.99999999999983
b10111111011101010111110000010000 `c
#509.9999999999998
b10111111011011010000001000110001 `c
#519.9999999999998
b10111111011000100010101000010110 `c
#529.9999999999998
b10111111010101010000111101111011 `c
#539.9999999999997
b10111111010001011101001111100101 `c
#549.9999999999997
b10111111001101001001111001001010 `c
#559.9999999999997
b10111111001000011001101010110001 `c
#569.9999999999995
b10111111000011001111100110111010 `c
#579.9999999999995
b10111110111011011110000001010110 `c
#589.9999999999995
b10111110101111110110110011000011 `c
#599.9999999999994
b10111110100011110000111110001100 `c
#609.9999999999994
b10111110001110101000100011001111 `c
#619.9999999999994
b10111101101010100010101011000111 `c
#629.9999999999993
b00111100100010011011110101001110 `c
#639.9999999999993
b00111101111011101011000101011001 `c
#649.9999999999993
b00111110010111000100100001101010 `c
#659.9999999999992
b00111110100111111000001001011001 `c
#669.9999999999992
b00111110110011110100100001111101 `c
#679.9999999999992
b00111110111111001111110001101101 `c
#689.9999999999991
b00111111000101000001010010100001 `c
#699.9999999999991
b00111111001010000011000001000110 `c
#709.9999999999991
b00111111001110101001110110110111 `c
#719.9999999999991
b00111111010010110010110111010001 `c
#729.999999999999
b00111111010110011011011000110111 `c
#739.999999999999
b00111111011001100001000110111100 `c
#749.999999999999
b00111111011100000010000011000100 `c
#759.9999999999989
b00111111011101111100100110010101 `c
#769.9999999999989
b00111111011111001111100010011000 `c
#779.9999999999989
b00111111011111111010000010001001 `c
#789.9999999999987
b00111111011111111011101010011111 `c
#799.9999999999987
b00111111011111010100011010010101 `c
#809.9999999999987
b00111111011110000100101010110011 `c
#819.9999999999986
b00111111011100001101001110111000 `c
#829.9999999999986
b00111111011001101111010010111100 `c
#839.9999999999986
b00111111010110101100011011111110 `c
#849.9999999999986
b00111111010011000110100110100111 `c
#859.9999999999985
b00111111001111000000000101110011 `c
#869.9999999999985
b00111111001010011011100001011010 `c
#879.9999999999985
b00111111000101011011110100100010 `c
#889.9999999999984
b00111111000000000100001011100111 `c
#899.9999999999984
b00111110110100110000000100110010 `c
#909.9999999999984
b00111110101000110110000011011100 `c
#919.9999999999983
b00111110011001000011110101000001 `c
#929.9999999999983
b00111101111111101110000111110110 `c
#939.9999999999983
b00111100110010101111010111010101 `c
#949.9999999999982
b10111101100110011110100011010101 `c
#959.9999999999982
b10111110001100101000001010111000 `c
#969.9999999999982
b10111110100010110010010000110101 `c
#979.9999999999981
b10111110101110111010001100100111 `c
#989.9999999999981
b10111110111010100100001000100101 `c
#999.9999999999981
b10111111000010110100010011111000 `c