public/test/zcmp_100.vcd
$timescale 1ns $end
$scope module test $end
$var wire 32 `c cntr $end
$upscope $end
$enddefinitions $end
$dumpvars
#10
b00000000000000000000000000000000 `c
#20
b00000000000000000000000000000001 `c
#1030
b00000000000000000000000000000000 `c
#1040
b00000000000000000000000000000001 `c
#1050
b00000000000000000000000000000010 `c
#2060
b00000000000000000000000000000000 `c
#2070
b00000000000000000000000000000001 `c
#2080
b00000000000000000000000000000010 `c
#2090
b00000000000000000000000000000011 `c
#3100
b00000000000000000000000000000000 `c
#3110
b00000000000000000000000000000001 `c
#3120
b00000000000000000000000000000010 `c
#3130
b00000000000000000000000000000011 `c
#3140
b00000000000000000000000000000100 `c
#4150
b00000000000000000000000000000000 `c
#4160
b00000000000000000000000000000001 `c
#4170
b00000000000000000000000000000010 `c
#4180
b00000000000000000000000000000011 `c
#4190
b00000000000000000000000000000100 `c
#4200
b00000000000000000000000000000101 `c
#5210
b00000000000000000000000000000000 `c
#5220
b00000000000000000000000000000001 `c
#5230
b00000000000000000000000000000010 `c
#5240
b00000000000000000000000000000011 `c
#5250
b00000000000000000000000000000100 `c
#5260
b00000000000000000000000000000101 `c
#5270
b00000000000000000000000000000110 `c
#6280
b00000000000000000000000000000000 `c
#6290
b00000000000000000000000000000001 `c
#6300
b00000000000000000000000000000010 `c
#6310
b00000000000000000000000000000011 `c
#6320
b00000000000000000000000000000100 `c
#6330
b00000000000000000000000000000101 `c
#6340
b00000000000000000000000000000110 `c
#6350
b00000000000000000000000000000111 `c
#7360
b00000000000000000000000000000000 `c
#7370
b00000000000000000000000000000001 `c
#7380
b00000000000000000000000000000010 `c
#7390
b00000000000000000000000000000011 `c
#7400
b00000000000000000000000000000100 `c
#7410
b00000000000000000000000000000101 `c
#7420
b00000000000000000000000000000110 `c
#7430
b00000000000000000000000000000111 `c
#7440
b00000000000000000000000000001000 `c
#8450
b00000000000000000000000000000000 `c
#8460
b00000000000000000000000000000001 `c
#8470
b00000000000000000000000000000010 `c
#8480
b00000000000000000000000000000011 `c
#8490
b00000000000000000000000000000100 `c
#8500
b00000000000000000000000000000101 `c
#8510
b00000000000000000000000000000110 `c
#8520
b00000000000000000000000000000111 `c
#8530
b00000000000000000000000000001000 `c
#8540
b00000000000000000000000000001001 `c
#9550
b00000000000000000000000000000000 `c
#9560
b00000000000000000000000000000001 `c
#9570
b00000000000000000000000000000010 `c
#9580
b00000000000000000000000000000011 `c
#9590
b00000000000000000000000000000100 `c
#9600
b00000000000000000000000000000101 `c
#9610
b00000000000000000000000000000110 `c
#9620
b00000000000000000000000000000111 `c
#9630
b00000000000000000000000000001000 `c
#9640
b00000000000000000000000000001001 `c
#9650
b00000000000000000000000000001010 `c
#10660
b00000000000000000000000000000000 `c
#10670
b00000000000000000000000000000001 `c
#10680
b00000000000000000000000000000010 `c
#10690
b00000000000000000000000000000011 `c
#10700
b00000000000000000000000000000100 `c
#10710
b00000000000000000000000000000101 `c
#10720
b00000000000000000000000000000110 `c
#10730
b00000000000000000000000000000111 `c
#10740
b00000000000000000000000000001000 `c
#10750
b00000000000000000000000000001001 `c
#10760
b00000000000000000000000000001010 `c
#10770
b00000000000000000000000000001011 `c
#11780
b00000000000000000000000000000000 `c
#11790
b00000000000000000000000000000001 `c
#11800
b00000000000000000000000000000010 `c
#11810
b00000000000000000000000000000011 `c
#11820
b00000000000000000000000000000100 `c
#11830
b00000000000000000000000000000101 `c
#11840
b00000000000000000000000000000110 `c
#11850
b00000000000000000000000000000111 `c
#11860
b00000000000000000000000000001000 `c
#11870
b00000000000000000000000000001001 `c
#11880
b00000000000000000000000000001010 `c
#11890
b00000000000000000000000000001011 `c
#11900
b00000000000000000000000000001100 `c
#12910
b00000000000000000000000000000000 `c
#12920
b00000000000000000000000000000001 `c
#12930
b00000000000000000000000000000010 `c
#12940
b00000000000000000000000000000011 `c
#12950
b00000000000000000000000000000100 `c
#12960
b00000000000000000000000000000101 `c
#12970
b00000000000000000000000000000110 `c
#12980
b00000000000000000000000000000111 `c
#12990
b00000000000000000000000000001000 `c
#13000
b00000000000000000000000000001001 `c
#13010
b00000000000000000000000000001010 `c
#13020
b00000000000000000000000000001011 `c
#13030
b00000000000000000000000000001100 `c
#13040
b00000000000000000000000000001101 `c
#14050
b00000000000000000000000000000000 `c
#14060
b00000000000000000000000000000001 `c
#14070
b00000000000000000000000000000010 `c
#14080
b00000000000000000000000000000011 `c
#14090
b00000000000000000000000000000100 `c
#14100
b00000000000000000000000000000101 `c
#14110
b00000000000000000000000000000110 `c
#14120
b00000000000000000000000000000111 `c
#14130
b00000000000000000000000000001000 `c
#14140
b00000000000000000000000000001001 `c
#14150
b00000000000000000000000000001010 `c
#14160
b00000000000000000000000000001011 `c
#14170
b00000000000000000000000000001100 `c
#14180
b00000000000000000000000000001101 `c
#14190
b00000000000000000000000000001110 `c
#15200
b00000000000000000000000000000000 `c
#15210
b00000000000000000000000000000001 `c
#15220
b00000000000000000000000000000010 `c
#15230
b00000000000000000000000000000011 `c
#15240
b00000000000000000000000000000100 `c
#15250
b00000000000000000000000000000101 `c
#15260
b00000000000000000000000000000110 `c
#15270
b00000000000000000000000000000111 `c
#15280
b00000000000000000000000000001000 `c
#15290
b00000000000000000000000000001001 `c
#15300
b00000000000000000000000000001010 `c
#15310
b00000000000000000000000000001011 `c
#15320
b00000000000000000000000000001100 `c
#15330
b00000000000000000000000000001101 `c
#15340
b00000000000000000000000000001110 `c
#15350
b00000000000000000000000000001111 `c
#16360
b00000000000000000000000000000000 `c
#16370
b00000000000000000000000000000001 `c
#16380
b00000000000000000000000000000010 `c
#16390
b00000000000000000000000000000011 `c
#16400
b00000000000000000000000000000100 `c
#16410
b00000000000000000000000000000101 `c
#16420
b00000000000000000000000000000110 `c
#16430
b00000000000000000000000000000111 `c
#16440
b00000000000000000000000000001000 `c
#16450
b00000000000000000000000000001001 `c
#16460
b00000000000000000000000000001010 `c
#16470
b00000000000000000000000000001011 `c
#16480
b00000000000000000000000000001100 `c
#16490
b00000000000000000000000000001101 `c
#16500
b00000000000000000000000000001110 `c
#16510
b00000000000000000000000000001111 `c
#16520
b00000000000000000000000000010000 `c
#17530
b00000000000000000000000000000000 `c
#17540
b00000000000000000000000000000001 `c
#17550
b00000000000000000000000000000010 `c
#17560
b00000000000000000000000000000011 `c
#17570
b00000000000000000000000000000100 `c
#17580
b00000000000000000000000000000101 `c
#17590
b00000000000000000000000000000110 `c
#17600
b00000000000000000000000000000111 `c
#17610
b00000000000000000000000000001000 `c
#17620
b00000000000000000000000000001001 `c
#17630
b00000000000000000000000000001010 `c
#17640
b00000000000000000000000000001011 `c
#17650
b00000000000000000000000000001100 `c
#17660
b00000000000000000000000000001101 `c
#17670
b00000000000000000000000000001110 `c
#17680
b00000000000000000000000000001111 `c
#17690
b00000000000000000000000000010000 `c
#17700
b00000000000000000000000000010001 `c
#18710
b00000000000000000000000000000000 `c
#18720
b00000000000000000000000000000001 `c
#18730
b00000000000000000000000000000010 `c
#18740
b00000000000000000000000000000011 `c
#18750
b00000000000000000000000000000100 `c
#18760
b00000000000000000000000000000101 `c
#18770
b00000000000000000000000000000110 `c
#18780
b00000000000000000000000000000111 `c
#18790
b00000000000000000000000000001000 `c
#18800
b00000000000000000000000000001001 `c
#18810
b00000000000000000000000000001010 `c
#18820
b00000000000000000000000000001011 `c
#18830
b00000000000000000000000000001100 `c
#18840
b00000000000000000000000000001101 `c
#18850
b00000000000000000000000000001110 `c
#18860
b00000000000000000000000000001111 `c
#18870
b00000000000000000000000000010000 `c
#18880
b00000000000000000000000000010001 `c
#18890
b00000000000000000000000000010010 `c
#19900
b00000000000000000000000000000000 `c
#19910
b00000000000000000000000000000001 `c
#19920
b00000000000000000000000000000010 `c
#19930
b00000000000000000000000000000011 `c
#19940
b00000000000000000000000000000100 `c
#19950
b00000000000000000000000000000101 `c
#19960
b00000000000000000000000000000110 `c
#19970
b00000000000000000000000000000111 `c
#19980
b00000000000000000000000000001000 `c
#19990
b00000000000000000000000000001001 `c
#20000
b00000000000000000000000000001010 `c
#20010
b00000000000000000000000000001011 `c
#20020
b00000000000000000000000000001100 `c
#20030
b00000000000000000000000000001101 `c
#20040
b00000000000000000000000000001110 `c
#20050
b00000000000000000000000000001111 `c
#20060
b00000000000000000000000000010000 `c
#20070
b00000000000000000000000000010001 `c
#20080
b00000000000000000000000000010010 `c
#20090
b00000000000000000000000000010011 `c
#21100
b00000000000000000000000000000000 `c
#21110
b00000000000000000000000000000001 `c
#21120
b00000000000000000000000000000010 `c
#21130
b00000000000000000000000000000011 `c
#21140
b00000000000000000000000000000100 `c
#21150
b00000000000000000000000000000101 `c
#21160
b00000000000000000000000000000110 `c
#21170
b00000000000000000000000000000111 `c
#21180
b00000000000000000000000000001000 `c
#21190
b00000000000000000000000000001001 `c
#21200
b00000000000000000000000000001010 `c
#21210
b00000000000000000000000000001011 `c
#21220
b00000000000000000000000000001100 `c
#21230
b00000000000000000000000000001101 `c
#21240
b00000000000000000000000000001110 `c
#21250
b00000000000000000000000000001111 `c
#21260
b00000000000000000000000000010000 `c
#21270
b00000000000000000000000000010001 `c
#21280
b00000000000000000000000000010010 `c
#21290
b00000000000000000000000000010011 `c
#21300
b00000000000000000000000000010100 `c
#22310
b00000000000000000000000000000000 `c
#22320
b00000000000000000000000000000001 `c
#22330
b00000000000000000000000000000010 `c
#22340
b00000000000000000000000000000011 `c
#22350
b00000000000000000000000000000100 `c
#22360
b00000000000000000000000000000101 `c
#22370
b00000000000000000000000000000110 `c
#22380
b00000000000000000000000000000111 `c
#22390
b00000000000000000000000000001000 `c
#22400
b00000000000000000000000000001001 `c
#22410
b00000000000000000000000000001010 `c
#22420
b00000000000000000000000000001011 `c
#22430
b00000000000000000000000000001100 `c
#22440
b00000000000000000000000000001101 `c
#22450
b00000000000000000000000000001110 `c
#22460
b00000000000000000000000000001111 `c
#22470
b00000000000000000000000000010000 `c
#22480
b00000000000000000000000000010001 `c
#22490
b00000000000000000000000000010010 `c
#22500
b00000000000000000000000000010011 `c
#22510
b00000000000000000000000000010100 `c
#22520
b00000000000000000000000000010101 `c
#23530
b00000000000000000000000000000000 `c
#23540
b00000000000000000000000000000001 `c
#23550
b00000000000000000000000000000010 `c
#23560
b00000000000000000000000000000011 `c
#23570
b00000000000000000000000000000100 `c
#23580
b00000000000000000000000000000101 `c
#23590
b00000000000000000000000000000110 `c
#23600
b00000000000000000000000000000111 `c
#23610
b00000000000000000000000000001000 `c
#23620
b00000000000000000000000000001001 `c
#23630
b00000000000000000000000000001010 `c
#23640
b00000000000000000000000000001011 `c
#23650
b00000000000000000000000000001100 `c
#23660
b00000000000000000000000000001101 `c
#23670
b00000000000000000000000000001110 `c
#23680
b00000000000000000000000000001111 `c
#23690
b00000000000000000000000000010000 `c
#23700
b00000000000000000000000000010001 `c
#23710
b00000000000000000000000000010010 `c
#23720
b00000000000000000000000000010011 `c
#23730
b00000000000000000000000000010100 `c
#23740
b00000000000000000000000000010101 `c
#23750
b00000000000000000000000000010110 `c
#24760
b00000000000000000000000000000000 `c
#24770
b00000000000000000000000000000001 `c
#24780
b00000000000000000000000000000010 `c
#24790
b00000000000000000000000000000011 `c
#24800
b00000000000000000000000000000100 `c
#24810
b00000000000000000000000000000101 `c
#24820
b00000000000000000000000000000110 `c
#24830
b00000000000000000000000000000111 `c
#24840
b00000000000000000000000000001000 `c
#24850
b00000000000000000000000000001001 `c
#24860
b00000000000000000000000000001010 `c
#24870
b00000000000000000000000000001011 `c
#24880
b00000000000000000000000000001100 `c
#24890
b00000000000000000000000000001101 `c
#24900
b00000000000000000000000000001110 `c
#24910
b00000000000000000000000000001111 `c
#24920
b00000000000000000000000000010000 `c
#24930
b00000000000000000000000000010001 `c
#24940
b00000000000000000000000000010010 `c
#24950
b00000000000000000000000000010011 `c
#24960
b00000000000000000000000000010100 `c
#24970
b00000000000000000000000000010101 `c
#24980
b00000000000000000000000000010110 `c
#24990
b00000000000000000000000000010111 `c
#26000
b00000000000000000000000000000000 `c
#26010
b00000000000000000000000000000001 `c
#26020
b00000000000000000000000000000010 `c
#26030
b00000000000000000000000000000011 `c
#26040
b00000000000000000000000000000100 `c
#26050
b00000000000000000000000000000101 `c
#26060
b00000000000000000000000000000110 `c
#26070
b00000000000000000000000000000111 `c
#26080
b00000000000000000000000000001000 `c
#26090
b00000000000000000000000000001001 `c
#26100
b00000000000000000000000000001010 `c
#26110
b00000000000000000000000000001011 `c
#26120
b00000000000000000000000000001100 `c
#26130
b00000000000000000000000000001101 `c
#26140
b00000000000000000000000000001110 `c
#26150
b00000000000000000000000000001111 `c
#26160
b00000000000000000000000000010000 `c
#26170
b00000000000000000000000000010001 `c
#26180
b00000000000000000000000000010010 `c
#26190
b00000000000000000000000000010011 `c
#26200
b00000000000000000000000000010100 `c
#26210
b00000000000000000000000000010101 `c
#26220
b00000000000000000000000000010110 `c
#26230
b00000000000000000000000000010111 `c
#26240
b00000000000000000000000000011000 `c
#27250
b00000000000000000000000000000000 `c
#27260
b00000000000000000000000000000001 `c
#27270
b00000000000000000000000000000010 `c
#27280
b00000000000000000000000000000011 `c
#27290
b00000000000000000000000000000100 `c
#27300
b00000000000000000000000000000101 `c
#27310
b00000000000000000000000000000110 `c
#27320
b00000000000000000000000000000111 `c
#27330
b00000000000000000000000000001000 `c
#27340
b00000000000000000000000000001001 `c
#27350
b00000000000000000000000000001010 `c
#27360
b00000000000000000000000000001011 `c
#27370
b00000000000000000000000000001100 `c
#27380
b00000000000000000000000000001101 `c
#27390
b00000000000000000000000000001110 `c
#27400
b00000000000000000000000000001111 `c
#27410
b00000000000000000000000000010000 `c
#27420
b00000000000000000000000000010001 `c
#27430
b00000000000000000000000000010010 `c
#27440
b00000000000000000000000000010011 `c
#27450
b00000000000000000000000000010100 `c
#27460
b00000000000000000000000000010101 `c
#27470
b00000000000000000000000000010110 `c
#27480
b00000000000000000000000000010111 `c
#27490
b00000000000000000000000000011000 `c
#27500
b00000000000000000000000000011001 `c
#28510
b00000000000000000000000000000000 `c
#28520
b00000000000000000000000000000001 `c
#28530
b00000000000000000000000000000010 `c
#28540
b00000000000000000000000000000011 `c
#28550
b00000000000000000000000000000100 `c
#28560
b00000000000000000000000000000101 `c
#28570
b00000000000000000000000000000110 `c
#28580
b00000000000000000000000000000111 `c
#28590
b00000000000000000000000000001000 `c
#28600
b00000000000000000000000000001001 `c
#28610
b00000000000000000000000000001010 `c
#28620
b00000000000000000000000000001011 `c
#28630
b00000000000000000000000000001100 `c
#28640
b00000000000000000000000000001101 `c
#28650
b00000000000000000000000000001110 `c
#28660
b00000000000000000000000000001111 `c
#28670
b00000000000000000000000000010000 `c
#28680
b00000000000000000000000000010001 `c
#28690
b00000000000000000000000000010010 `c
#28700
b00000000000000000000000000010011 `c
#28710
b00000000000000000000000000010100 `c
#28720
b00000000000000000000000000010101 `c
#28730
b00000000000000000000000000010110 `c
#28740
b00000000000000000000000000010111 `c
#28750
b00000000000000000000000000011000 `c
#28760
b00000000000000000000000000011001 `c
#28770
b00000000000000000000000000011010 `c
#29780
b00000000000000000000000000000000 `c
#29790
b00000000000000000000000000000001 `c
#29800
b00000000000000000000000000000010 `c
#29810
b00000000000000000000000000000011 `c
#29820
b00000000000000000000000000000100 `c
#29830
b00000000000000000000000000000101 `c
#29840
b00000000000000000000000000000110 `c
#29850
b00000000000000000000000000000111 `c
#29860
b00000000000000000000000000001000 `c
#29870
b00000000000000000000000000001001 `c
#29880
b00000000000000000000000000001010 `c
#29890
b00000000000000000000000000001011 `c
#29900
b00000000000000000000000000001100 `c
#29910
b00000000000000000000000000001101 `c
#29920
b00000000000000000000000000001110 `c
#29930
b00000000000000000000000000001111 `c
#29940
b00000000000000000000000000010000 `c
#29950
b00000000000000000000000000010001 `c
#29960
b00000000000000000000000000010010 `c
#29970
b00000000000000000000000000010011 `c
#29980
b00000000000000000000000000010100 `c
#29990
b00000000000000000000000000010101 `c
#30000
b00000000000000000000000000010110 `c
#30010
b00000000000000000000000000010111 `c
#30020
b00000000000000000000000000011000 `c
#30030
b00000000000000000000000000011001 `c
#30040
b00000000000000000000000000011010 `c
#30050
b00000000000000000000000000011011 `c
#31060
b00000000000000000000000000000000 `c
#31070
b00000000000000000000000000000001 `c
#31080
b00000000000000000000000000000010 `c
#31090
b00000000000000000000000000000011 `c
#31100
b00000000000000000000000000000100 `c
#31110
b00000000000000000000000000000101 `c
#31120
b00000000000000000000000000000110 `c
#31130
b00000000000000000000000000000111 `c
#31140
b00000000000000000000000000001000 `c
#31150
b00000000000000000000000000001001 `c
#31160
b00000000000000000000000000001010 `c
#31170
b00000000000000000000000000001011 `c
#31180
b00000000000000000000000000001100 `c
#31190
b00000000000000000000000000001101 `c
#31200
b00000000000000000000000000001110 `c
#31210
b00000000000000000000000000001111 `c
#31220
b00000000000000000000000000010000 `c
#31230
b00000000000000000000000000010001 `c
#31240
b00000000000000000000000000010010 `c
#31250
b00000000000000000000000000010011 `c
#31260
b00000000000000000000000000010100 `c
#31270
b00000000000000000000000000010101 `c
#31280
b00000000000000000000000000010110 `c
#31290
b00000000000000000000000000010111 `c
#31300
b00000000000000000000000000011000 `c
#31310
b00000000000000000000000000011001 `c
#31320
b00000000000000000000000000011010 `c
#31330
b00000000000000000000000000011011 `c
#31340
b00000000000000000000000000011100 `c
#32350
b00000000000000000000000000000000 `c
#32360
b00000000000000000000000000000001 `c
#32370
b00000000000000000000000000000010 `c
#32380
b00000000000000000000000000000011 `c
#32390
b00000000000000000000000000000100 `c
#32400
b00000000000000000000000000000101 `c
#32410
b00000000000000000000000000000110 `c
#32420
b00000000000000000000000000000111 `c
#32430
b00000000000000000000000000001000 `c
#32440
b00000000000000000000000000001001 `c
#32450
b00000000000000000000000000001010 `c
#32460
b00000000000000000000000000001011 `c
#32470
b00000000000000000000000000001100 `c
#32480
b00000000000000000000000000001101 `c
#32490
b00000000000000000000000000001110 `c
#32500
b00000000000000000000000000001111 `c
#32510
b00000000000000000000000000010000 `c
#32520
b00000000000000000000000000010001 `c
#32530
b00000000000000000000000000010010 `c
#32540
b00000000000000000000000000010011 `c
#32550
b00000000000000000000000000010100 `c
#32560
b00000000000000000000000000010101 `c
#32570
b00000000000000000000000000010110 `c
#32580
b00000000000000000000000000010111 `c
#32590
b00000000000000000000000000011000 `c
#32600
b00000000000000000000000000011001 `c
#32610
b00000000000000000000000000011010 `c
#32620
b00000000000000000000000000011011 `c
#32630
b00000000000000000000000000011100 `c
#32640
b00000000000000000000000000011101 `c
#33650
b00000000000000000000000000000000 `c
#33660
b00000000000000000000000000000001 `c
#33670
b00000000000000000000000000000010 `c
#33680
b00000000000000000000000000000011 `c
#33690
b00000000000000000000000000000100 `c
#33700
b00000000000000000000000000000101 `c
#33710
b00000000000000000000000000000110 `c
#33720
b00000000000000000000000000000111 `c
#33730
b00000000000000000000000000001000 `c
#33740
b00000000000000000000000000001001 `c
#33750
b00000000000000000000000000001010 `c
#33760
b00000000000000000000000000001011 `c
#33770
b00000000000000000000000000001100 `c
#33780
b00000000000000000000000000001101 `c
#33790
b00000000000000000000000000001110 `c
#33800
b00000000000000000000000000001111 `c
#33810
b00000000000000000000000000010000 `c
#33820
b00000000000000000000000000010001 `c
#33830
b00000000000000000000000000010010 `c
#33840
b00000000000000000000000000010011 `c
#33850
b00000000000000000000000000010100 `c
#33860
b00000000000000000000000000010101 `c
#33870
b00000000000000000000000000010110 `c
#33880
b00000000000000000000000000010111 `c
#33890
b00000000000000000000000000011000 `c
#33900
b00000000000000000000000000011001 `c
#33910
b00000000000000000000000000011010 `c
#33920
b00000000000000000000000000011011 `c
#33930
b00000000000000000000000000011100 `c
#33940
b00000000000000000000000000011101 `c
#33950
b00000000000000000000000000011110 `c
#34960
b00000000000000000000000000000000 `c
#34970
b00000000000000000000000000000001 `c
#34980
b00000000000000000000000000000010 `c
#34990
b00000000000000000000000000000011 `c
#35000
b00000000000000000000000000000100 `c
#35010
b00000000000000000000000000000101 `c
#35020
b00000000000000000000000000000110 `c
#35030
b00000000000000000000000000000111 `c
#35040
b00000000000000000000000000001000 `c
#35050
b00000000000000000000000000001001 `c
#35060
b00000000000000000000000000001010 `c
#35070
b00000000000000000000000000001011 `c
#35080
b00000000000000000000000000001100 `c
#35090
b00000000000000000000000000001101 `c
#35100
b00000000000000000000000000001110 `c
#35110
b00000000000000000000000000001111 `c
#35120
b00000000000000000000000000010000 `c
#35130
b00000000000000000000000000010001 `c
#35140
b00000000000000000000000000010010 `c
#35150
b00000000000000000000000000010011 `c
#35160
b00000000000000000000000000010100 `c
#35170
b00000000000000000000000000010101 `c
#35180
b00000000000000000000000000010110 `c
#35190
b00000000000000000000000000010111 `c
#35200
b00000000000000000000000000011000 `c
#35210
b00000000000000000000000000011001 `c
#35220
b00000000000000000000000000011010 `c
#35230
b00000000000000000000000000011011 `c
#35240
b00000000000000000000000000011100 `c
#35250
b00000000000000000000000000011101 `c
#35260
b00000000000000000000000000011110 `c
#35270
b00000000000000000000000000011111 `c
#36280
b00000000000000000000000000000000 `c
#36290
b00000000000000000000000000000001 `c
#36300
b00000000000000000000000000000010 `c
#36310
b00000000000000000000000000000011 `c
#36320
b00000000000000000000000000000100 `c
#36330
b00000000000000000000000000000101 `c
#36340
b00000000000000000000000000000110 `c
#36350
b00000000000000000000000000000111 `c
#36360
b00000000000000000000000000001000 `c
#36370
b00000000000000000000000000001001 `c
#36380
b00000000000000000000000000001010 `c
#36390
b00000000000000000000000000001011 `c
#36400
b00000000000000000000000000001100 `c
#36410
b00000000000000000000000000001101 `c
#36420
b00000000000000000000000000001110 `c
#36430
b00000000000000000000000000001111 `c
#36440
b00000000000000000000000000010000 `c
#36450
b00000000000000000000000000010001 `c
#36460
b00000000000000000000000000010010 `c
#36470
b00000000000000000000000000010011 `c
#36480
b00000000000000000000000000010100 `c
#36490
b00000000000000000000000000010101 `c
#36500
b00000000000000000000000000010110 `c
#36510
b00000000000000000000000000010111 `c
#36520
b00000000000000000000000000011000 `c
#36530
b00000000000000000000000000011001 `c
#36540
b00000000000000000000000000011010 `c
#36550
b00000000000000000000000000011011 `c
#36560
b00000000000000000000000000011100 `c
#36570
b00000000000000000000000000011101 `c
#36580
b00000000000000000000000000011110 `c
#36590
b00000000000000000000000000011111 `c
#36600
b00000000000000000000000000100000 `c
#37610
b00000000000000000000000000000000 `c
#37620
b00000000000000000000000000000001 `c
#37630
b00000000000000000000000000000010 `c
#37640
b00000000000000000000000000000011 `c
#37650
b00000000000000000000000000000100 `c
#37660
b00000000000000000000000000000101 `c
#37670
b00000000000000000000000000000110 `c
#37680
b00000000000000000000000000000111 `c
#37690
b00000000000000000000000000001000 `c
#37700
b00000000000000000000000000001001 `c
#37710
b00000000000000000000000000001010 `c
#37720
b00000000000000000000000000001011 `c
#37730
b00000000000000000000000000001100 `c
#37740
b00000000000000000000000000001101 `c
#37750
b00000000000000000000000000001110 `c
#37760
b00000000000000000000000000001111 `c
#37770
b00000000000000000000000000010000 `c
#37780
b00000000000000000000000000010001 `c
#37790
b00000000000000000000000000010010 `c
#37800
b00000000000000000000000000010011 `c
#37810
b00000000000000000000000000010100 `c
#37820
b00000000000000000000000000010101 `c
#37830
b00000000000000000000000000010110 `c
#37840
b00000000000000000000000000010111 `c
#37850
b00000000000000000000000000011000 `c
#37860
b00000000000000000000000000011001 `c
#37870
b00000000000000000000000000011010 `c
#37880
b00000000000000000000000000011011 `c
#37890
b00000000000000000000000000011100 `c
#37900
b00000000000000000000000000011101 `c
#37910
b00000000000000000000000000011110 `c
#37920
b00000000000000000000000000011111 `c
#37930
b00000000000000000000000000100000 `c
#37940
b00000000000000000000000000100001 `c
#38950
b00000000000000000000000000000000 `c
#38960
b00000000000000000000000000000001 `c
#38970
b00000000000000000000000000000010 `c
#38980
b00000000000000000000000000000011 `c
#38990
b00000000000000000000000000000100 `c
#39000
b00000000000000000000000000000101 `c
#39010
b00000000000000000000000000000110 `c
#39020
b00000000000000000000000000000111 `c
#39030
b00000000000000000000000000001000 `c
#39040
b00000000000000000000000000001001 `c
#39050
b00000000000000000000000000001010 `c
#39060
b00000000000000000000000000001011 `c
#39070
b00000000000000000000000000001100 `c
#39080
b00000000000000000000000000001101 `c
#39090
b00000000000000000000000000001110 `c
#39100
b00000000000000000000000000001111 `c
#39110
b00000000000000000000000000010000 `c
#39120
b00000000000000000000000000010001 `c
#39130
b00000000000000000000000000010010 `c
#39140
b00000000000000000000000000010011 `c
#39150
b00000000000000000000000000010100 `c
#39160
b00000000000000000000000000010101 `c
#39170
b00000000000000000000000000010110 `c
#39180
b00000000000000000000000000010111 `c
#39190
b00000000000000000000000000011000 `c
#39200
b00000000000000000000000000011001 `c
#39210
b00000000000000000000000000011010 `c
#39220
b00000000000000000000000000011011 `c
#39230
b00000000000000000000000000011100 `c
#39240
b00000000000000000000000000011101 `c
#39250
b00000000000000000000000000011110 `c
#39260
b00000000000000000000000000011111 `c
#39270
b00000000000000000000000000100000 `c
#39280
b00000000000000000000000000100001 `c
#39290
b00000000000000000000000000100010 `c
#40300
b00000000000000000000000000000000 `c
#40310
b00000000000000000000000000000001 `c
#40320
b00000000000000000000000000000010 `c
#40330
b00000000000000000000000000000011 `c
#40340
b00000000000000000000000000000100 `c
#40350
b00000000000000000000000000000101 `c
#40360
b00000000000000000000000000000110 `c
#40370
b00000000000000000000000000000111 `c
#40380
b00000000000000000000000000001000 `c
#40390
b00000000000000000000000000001001 `c
#40400
b00000000000000000000000000001010 `c
#40410
b00000000000000000000000000001011 `c
#40420
b00000000000000000000000000001100 `c
#40430
b00000000000000000000000000001101 `c
#40440
b00000000000000000000000000001110 `c
#40450
b00000000000000000000000000001111 `c
#40460
b00000000000000000000000000010000 `c
#40470
b00000000000000000000000000010001 `c
#40480
b00000000000000000000000000010010 `c
#40490
b00000000000000000000000000010011 `c
#40500
b00000000000000000000000000010100 `c
#40510
b00000000000000000000000000010101 `c
#40520
b00000000000000000000000000010110 `c
#40530
b00000000000000000000000000010111 `c
#40540
b00000000000000000000000000011000 `c
#40550
b00000000000000000000000000011001 `c
#40560
b00000000000000000000000000011010 `c
#40570
b00000000000000000000000000011011 `c
#40580
b00000000000000000000000000011100 `c
#40590
b00000000000000000000000000011101 `c
#40600
b00000000000000000000000000011110 `c
#40610
b00000000000000000000000000011111 `c
#40620
b00000000000000000000000000100000 `c
#40630
b00000000000000000000000000100001 `c
#40640
b00000000000000000000000000100010 `c
#40650
b00000000000000000000000000100011 `c
#41660
b00000000000000000000000000000000 `c
#41670
b00000000000000000000000000000001 `c
#41680
b00000000000000000000000000000010 `c
#41690
b00000000000000000000000000000011 `c
#41700
b00000000000000000000000000000100 `c
#41710
b00000000000000000000000000000101 `c
#41720
b00000000000000000000000000000110 `c
#41730
b00000000000000000000000000000111 `c
#41740
b00000000000000000000000000001000 `c
#41750
b00000000000000000000000000001001 `c
#41760
b00000000000000000000000000001010 `c
#41770
b00000000000000000000000000001011 `c
#41780
b00000000000000000000000000001100 `c
#41790
b00000000000000000000000000001101 `c
#41800
b00000000000000000000000000001110 `c
#41810
b00000000000000000000000000001111 `c
#41820
b00000000000000000000000000010000 `c
#41830
b00000000000000000000000000010001 `c
#41840
b00000000000000000000000000010010 `c
#41850
b00000000000000000000000000010011 `c
#41860
b00000000000000000000000000010100 `c
#41870
b00000000000000000000000000010101 `c
#41880
b00000000000000000000000000010110 `c
#41890
b00000000000000000000000000010111 `c
#41900
b00000000000000000000000000011000 `c
#41910
b00000000000000000000000000011001 `c
#41920
b00000000000000000000000000011010 `c
#41930
b00000000000000000000000000011011 `c
#41940
b00000000000000000000000000011100 `c
#41950
b00000000000000000000000000011101 `c
#41960
b00000000000000000000000000011110 `c
#41970
b00000000000000000000000000011111 `c
#41980
b00000000000000000000000000100000 `c
#41990
b00000000000000000000000000100001 `c
#42000
b00000000000000000000000000100010 `c
#42010
b00000000000000000000000000100011 `c
#42020
b00000000000000000000000000100100 `c
#43030
b00000000000000000000000000000000 `c
#43040
b00000000000000000000000000000001 `c
#43050
b00000000000000000000000000000010 `c
#43060
b00000000000000000000000000000011 `c
#43070
b00000000000000000000000000000100 `c
#43080
b00000000000000000000000000000101 `c
#43090
b00000000000000000000000000000110 `c
#43100
b00000000000000000000000000000111 `c
#43110
b00000000000000000000000000001000 `c
#43120
b00000000000000000000000000001001 `c
#43130
b00000000000000000000000000001010 `c
#43140
b00000000000000000000000000001011 `c
#43150
b00000000000000000000000000001100 `c
#43160
b00000000000000000000000000001101 `c
#43170
b00000000000000000000000000001110 `c
#43180
b00000000000000000000000000001111 `c
#43190
b00000000000000000000000000010000 `c
#43200
b00000000000000000000000000010001 `c
#43210
b00000000000000000000000000010010 `c
#43220
b00000000000000000000000000010011 `c
#43230
b00000000000000000000000000010100 `c
#43240
b00000000000000000000000000010101 `c
#43250
b00000000000000000000000000010110 `c
#43260
b00000000000000000000000000010111 `c
#43270
b00000000000000000000000000011000 `c
#43280
b00000000000000000000000000011001 `c
#43290
b00000000000000000000000000011010 `c
#43300
b00000000000000000000000000011011 `c
#43310
b00000000000000000000000000011100 `c
#43320
b00000000000000000000000000011101 `c
#43330
b00000000000000000000000000011110 `c
#43340
b00000000000000000000000000011111 `c
#43350
b00000000000000000000000000100000 `c
#43360
b00000000000000000000000000100001 `c
#43370
b00000000000000000000000000100010 `c
#43380
b00000000000000000000000000100011 `c
#43390
b00000000000000000000000000100100 `c
#43400
b00000000000000000000000000100101 `c
#44410
b00000000000000000000000000000000 `c
#44420
b00000000000000000000000000000001 `c
#44430
b00000000000000000000000000000010 `c
#44440
b00000000000000000000000000000011 `c
#44450
b00000000000000000000000000000100 `c
#44460
b00000000000000000000000000000101 `c
